﻿H00012017062601O
D00000001#OF17015141#10001#Bu terminal onceden kaydedilmis.
D00000002#OF17015133#10001#Bu terminal onceden kaydedilmis.
D00000003#OF17015144#10001#Bu terminal onceden kaydedilmis.
D00000004#OF17015142#10001#Bu terminal onceden kaydedilmis.
D00000005#OF17015137#10001#Bu terminal onceden kaydedilmis.
D00000006#OF17015128#10001#Bu terminal onceden kaydedilmis.
D00000007#OF17015156#10001#Bu terminal onceden kaydedilmis.
D00000008#OF17015140#10001#Bu terminal onceden kaydedilmis.
D00000009#OF17015149#10001#Bu terminal onceden kaydedilmis.
D00000010#OF17015160#10001#Bu terminal onceden kaydedilmis.
D00000011#OF17015134#10001#Bu terminal onceden kaydedilmis.
D00000012#OF17015143#10001#Bu terminal onceden kaydedilmis.
D00000013#OF17015151#10001#Bu terminal onceden kaydedilmis.
D00000014#OF17015132#10001#Bu terminal onceden kaydedilmis.
D00000015#OF17015145#10001#Bu terminal onceden kaydedilmis.
D00000016#OF17015136#10001#Bu terminal onceden kaydedilmis.
D00000017#OF17015147#10001#Bu terminal onceden kaydedilmis.
D00000018#OF17015146#10001#Bu terminal onceden kaydedilmis.
D00000019#OF17015126#10001#Bu terminal onceden kaydedilmis.
D00000020#OF17015158#10001#Bu terminal onceden kaydedilmis.
D00000021#OF17015131#10001#Bu terminal onceden kaydedilmis.
D00000022#OF17015154#10001#Bu terminal onceden kaydedilmis.
D00000023#OF17015138#10001#Bu terminal onceden kaydedilmis.
D00000024#OF17015127#10001#Bu terminal onceden kaydedilmis.
D00000025#OF17015135#10001#Bu terminal onceden kaydedilmis.
D00000026#OF17015159#10001#Bu terminal onceden kaydedilmis.
D00000027#OF17015157#10001#Bu terminal onceden kaydedilmis.
D00000028#OF17015148#10001#Bu terminal onceden kaydedilmis.
D00000029#OF17015153#10001#Bu terminal onceden kaydedilmis.
D00000030#OF17015155#10001#Bu terminal onceden kaydedilmis.
D00000031#OF17015139#10001#Bu terminal onceden kaydedilmis.
D00000032#OF17015152#10001#Bu terminal onceden kaydedilmis.
D00000033#OF17015150#10001#Bu terminal onceden kaydedilmis.
D00000034#OF17015129#10001#Bu terminal onceden kaydedilmis.
D00000035#OF17015130#10001#Bu terminal onceden kaydedilmis.
F35
V001#000000000036#Mühürlü cihaz[Sertifika bilgisi olmayan]#
V002#000000000143#Mühürlü cihaz[Sertifika bilgisi olan]#
V003#000000001412#Aktivasyonu yapılmış cihaz#
V004#000000000052#Kapalı cihaz#
V005#000000000017#Hurdaya ayrılmış cihaz#
V006#000000000000#Kayıp çalıntı cihaz#
