﻿H00032017022601O
F0
V001#000000000000#Mühürlü cihaz[Sertifika bilgisi olmayan]#
V002#000000000053#Mühürlü cihaz[Sertifika bilgisi olan]#
V003#000000001340#Aktivasyonu yapılmış cihaz#
V004#000000000051#Kapalı cihaz#
V005#000000000016#Hurdaya ayrılmış cihaz#
V006#000000000000#Kayıp çalıntı cihaz#
