﻿H00022017090601O
D00000001#OF00000933#10062#Gönderilen yetkili kişinin bu cihaz için işlem yapma yetkisi bulunmamaktadır
D00000002#OF00000931#10062#Gönderilen yetkili kişinin bu cihaz için işlem yapma yetkisi bulunmamaktadır
D00000003#OF00000933#10091#Önceki durum hata aldığından işlenmemiştir. :Satır No: 1
D00000004#OF00000931#10091#Önceki durum hata aldığından işlenmemiştir. :Satır No: 2
F4
V001#000000000038#Mühürlü cihaz[Sertifika bilgisi olmayan]#
V002#000000000104#Mühürlü cihaz[Sertifika bilgisi olan]#
V003#000000001449#Aktivasyonu yapılmış cihaz#
V004#000000000053#Kapalı cihaz#
V005#000000000018#Hurdaya ayrılmış cihaz#
V006#000000000000#Kayıp çalıntı cihaz#
