﻿H00022017041801O
F0
V001#000000000001#Mühürlü cihaz[Sertifika bilgisi olmayan]#
V002#000000000148#Mühürlü cihaz[Sertifika bilgisi olan]#
V003#000000001408#Aktivasyonu yapılmış cihaz#
V004#000000000051#Kapalı cihaz#
V005#000000000017#Hurdaya ayrılmış cihaz#
V006#000000000000#Kayıp çalıntı cihaz#
