﻿H00012016072701O
D00000001OF00000109  10015Mukellef Kayıtlı Değil                            
D00000002OF00001189  10003Public key kaydi bulunamadi.                      
D00000003OF00001190  10003Public key kaydi bulunamadi.                      
D00000004OF00000699  10003Public key kaydi bulunamadi.                      
F4
