﻿H00012016042701O
D00000001OF00000116  10003Public key kaydi bulunamadi.                      
D00000002OF00000171  10003Public key kaydi bulunamadi.                      
D00000003OF00000208  10003Public key kaydi bulunamadi.                      
D00000004OF00000238  10003Public key kaydi bulunamadi.                      
D00000005OF00000294  10003Public key kaydi bulunamadi.                      
F5
