﻿H00022016120202O
D00000001#OF00000419#10067#Hatalı Alan Uzunluğu :YOKC Il Kodu
D00000002#OF00000001#10067#Hatalı Alan Uzunluğu :YOKC Il Kodu
D00000003#OF00000010#10067#Hatalı Alan Uzunluğu :YOKC Il Kodu
D00000004#OF00000015#10067#Hatalı Alan Uzunluğu :YOKC Il Kodu
D00000005#OF00000018#10067#Hatalı Alan Uzunluğu :YOKC Il Kodu
D00000006#OF00000026#10067#Hatalı Alan Uzunluğu :YOKC Il Kodu
D00000007#OF00000027#10067#Hatalı Alan Uzunluğu :YOKC Il Kodu
D00000008#OF00000028#10067#Hatalı Alan Uzunluğu :YOKC Il Kodu
D00000009#OF00000031#10067#Hatalı Alan Uzunluğu :YOKC Il Kodu
D00000010#OF00000033#10067#Hatalı Alan Uzunluğu :YOKC Il Kodu
D00000011#OF00000043#10067#Hatalı Alan Uzunluğu :YOKC Il Kodu
D00000012#OF00000044#10067#Hatalı Alan Uzunluğu :YOKC Il Kodu
D00000013#OF00000050#10067#Hatalı Alan Uzunluğu :YOKC Il Kodu
D00000014#OF00000051#10067#Hatalı Alan Uzunluğu :YOKC Il Kodu
D00000015#OF00000056#10067#Hatalı Alan Uzunluğu :YOKC Il Kodu
D00000016#OF00000136#10067#Hatalı Alan Uzunluğu :YOKC Il Kodu
D00000017#OF00000137#10067#Hatalı Alan Uzunluğu :YOKC Il Kodu
D00000018#OF00000059#10067#Hatalı Alan Uzunluğu :YOKC Il Kodu
D00000019#OF00000063#10067#Hatalı Alan Uzunluğu :YOKC Il Kodu
D00000020#OF00000126#10067#Hatalı Alan Uzunluğu :YOKC Il Kodu
D00000021#OF00000128#10067#Hatalı Alan Uzunluğu :YOKC Il Kodu
D00000022#OF00000149#10067#Hatalı Alan Uzunluğu :YOKC Il Kodu
D00000023#OF00000086#10067#Hatalı Alan Uzunluğu :YOKC Il Kodu
D00000024#OF00000090#10067#Hatalı Alan Uzunluğu :YOKC Il Kodu
D00000025#OF00000089#10067#Hatalı Alan Uzunluğu :YOKC Il Kodu
D00000026#OF00000060#10067#Hatalı Alan Uzunluğu :YOKC Il Kodu
D00000027#OF00000067#10067#Hatalı Alan Uzunluğu :YOKC Il Kodu
D00000028#OF00000069#10067#Hatalı Alan Uzunluğu :YOKC Il Kodu
D00000029#OF00000078#10067#Hatalı Alan Uzunluğu :YOKC Il Kodu
D00000030#OF00000125#10067#Hatalı Alan Uzunluğu :YOKC Il Kodu
D00000031#OF00000109#10067#Hatalı Alan Uzunluğu :YOKC Il Kodu
D00000032#OF00000129#10067#Hatalı Alan Uzunluğu :YOKC Il Kodu
D00000033#OF00000127#10067#Hatalı Alan Uzunluğu :YOKC Il Kodu
D00000034#OF00000022#10009#Alanın degeri bos yada yanlış :Fatura Seri No
D00000035#OF00000023#10067#Hatalı Alan Uzunluğu :YOKC Il Kodu
D00000036#OF00000024#10067#Hatalı Alan Uzunluğu :YOKC Il Kodu
D00000037#OF00000025#10067#Hatalı Alan Uzunluğu :YOKC Il Kodu
D00000038#OF00000099#10067#Hatalı Alan Uzunluğu :YOKC Il Kodu
D00000039#OF00000270#10009#Alanın degeri bos yada yanlış :Fatura Seri No
D00000040#OF00000162#10009#Alanın degeri bos yada yanlış :Fatura Seri No
D00000041#OF00000257#10009#Alanın degeri bos yada yanlış :Fatura Seri No
D00000042#OF00000259#10009#Alanın degeri bos yada yanlış :Fatura Seri No
D00000043#OF00000260#10009#Alanın degeri bos yada yanlış :Fatura Seri No
D00000044#OF00000263#10009#Alanın degeri bos yada yanlış :Fatura Seri No
D00000045#OF00000264#10009#Alanın degeri bos yada yanlış :Fatura Seri No
D00000046#OF00000265#10067#Hatalı Alan Uzunluğu :YOKC Il Kodu
D00000047#OF00000266#10009#Alanın degeri bos yada yanlış :Fatura Seri No
D00000048#OF00000269#10009#Alanın degeri bos yada yanlış :Fatura Seri No
D00000049#OF00000272#10009#Alanın degeri bos yada yanlış :Fatura Seri No
D00000050#OF00000276#10009#Alanın degeri bos yada yanlış :Fatura Seri No
D00000051#OF00000277#10067#Hatalı Alan Uzunluğu :YOKC Il Kodu
D00000052#OF00000283#10067#Hatalı Alan Uzunluğu :YOKC Il Kodu
D00000053#OF00000285#10067#Hatalı Alan Uzunluğu :YOKC Il Kodu
D00000054#OF00000286#10067#Hatalı Alan Uzunluğu :YOKC Il Kodu
D00000055#OF00000289#10067#Hatalı Alan Uzunluğu :YOKC Il Kodu
D00000056#OF00000295#10067#Hatalı Alan Uzunluğu :YOKC Il Kodu
D00000057#OF00000296#10067#Hatalı Alan Uzunluğu :YOKC Il Kodu
D00000058#OF00000299#10067#Hatalı Alan Uzunluğu :YOKC Il Kodu
D00000059#OF00000308#10067#Hatalı Alan Uzunluğu :YOKC Il Kodu
D00000060#OF00000322#10067#Hatalı Alan Uzunluğu :YOKC Il Kodu
D00000061#OF00000350#10067#Hatalı Alan Uzunluğu :YOKC Il Kodu
D00000062#OF00000351#10067#Hatalı Alan Uzunluğu :YOKC Il Kodu
D00000063#OF00000357#10067#Hatalı Alan Uzunluğu :YOKC Il Kodu
D00000064#OF00000360#10067#Hatalı Alan Uzunluğu :YOKC Il Kodu
D00000065#OF00000365#10067#Hatalı Alan Uzunluğu :YOKC Il Kodu
D00000066#OF00000376#10067#Hatalı Alan Uzunluğu :YOKC Il Kodu
D00000067#OF00000377#10067#Hatalı Alan Uzunluğu :YOKC Il Kodu
D00000068#OF00000396#10067#Hatalı Alan Uzunluğu :YOKC Il Kodu
D00000069#OF00000399#10067#Hatalı Alan Uzunluğu :YOKC Il Kodu
D00000070#OF00000669#10067#Hatalı Alan Uzunluğu :YOKC Il Kodu
D00000071#OF00000670#10067#Hatalı Alan Uzunluğu :YOKC Il Kodu
D00000072#OF00000941#10067#Hatalı Alan Uzunluğu :YOKC Il Kodu
D00000073#OF00001038#10009#Alanın degeri bos yada yanlış :Fatura Seri No
D00000074#OF00000845#10009#Alanın degeri bos yada yanlış :Fatura Seri No
D00000075#OF00000064#10067#Hatalı Alan Uzunluğu :YOKC Il Kodu
D00000076#OF00000823#10009#Alanın degeri bos yada yanlış :Fatura Seri No
D00000077#OF00000837#10009#Alanın degeri bos yada yanlış :Fatura Seri No
D00000078#OF00000839#10009#Alanın degeri bos yada yanlış :Fatura Seri No
D00000079#OF00000854#10009#Alanın degeri bos yada yanlış :Fatura Seri No
D00000080#OF00000948#10009#Alanın degeri bos yada yanlış :Fatura Seri No
D00000081#OF00000953#10009#Alanın degeri bos yada yanlış :Fatura Seri No
D00000082#OF00000955#10009#Alanın degeri bos yada yanlış :Fatura Seri No
D00000083#OF00001041#10009#Alanın degeri bos yada yanlış :Fatura Seri No
D00000084#OF00000951#10009#Alanın degeri bos yada yanlış :Fatura Seri No
D00000085#OF00000954#10009#Alanın degeri bos yada yanlış :Fatura Seri No
D00000086#OF00000724#10009#Alanın degeri bos yada yanlış :Fatura Seri No
D00000087#OF00000747#10067#Hatalı Alan Uzunluğu :YOKC Il Kodu
D00000088#OF00000751#10009#Alanın degeri bos yada yanlış :Fatura Seri No
D00000089#OF00000752#10067#Hatalı Alan Uzunluğu :YOKC Il Kodu
D00000090#OF00000760#10067#Hatalı Alan Uzunluğu :YOKC Il Kodu
D00000091#OF00000768#10067#Hatalı Alan Uzunluğu :YOKC Il Kodu
D00000092#OF00000804#10067#Hatalı Alan Uzunluğu :YOKC Il Kodu
D00000093#OF00000848#10067#Hatalı Alan Uzunluğu :YOKC Il Kodu
D00000094#OF00000892#10067#Hatalı Alan Uzunluğu :YOKC Il Kodu
D00000095#OF00000766#10067#Hatalı Alan Uzunluğu :YOKC Il Kodu
D00000096#OF00000794#10067#Hatalı Alan Uzunluğu :YOKC Il Kodu
D00000097#OF00000871#10009#Alanın degeri bos yada yanlış :Fatura Seri No
D00000098#OF00000874#10067#Hatalı Alan Uzunluğu :YOKC Il Kodu
D00000099#OF00000034#10067#Hatalı Alan Uzunluğu :YOKC Il Kodu
D00000100#OF00000052#10067#Hatalı Alan Uzunluğu :YOKC Il Kodu
D00000101#OF00000160#10067#Hatalı Alan Uzunluğu :YOKC Il Kodu
D00000102#OF00000193#10067#Hatalı Alan Uzunluğu :YOKC Il Kodu
D00000103#OF00000194#10009#Alanın degeri bos yada yanlış :Fatura Seri No
D00000104#OF00000165#10067#Hatalı Alan Uzunluğu :YOKC Il Kodu
D00000105#OF00000166#10067#Hatalı Alan Uzunluğu :YOKC Il Kodu
D00000106#OF00000190#10067#Hatalı Alan Uzunluğu :YOKC Il Kodu
D00000107#OF00000191#10067#Hatalı Alan Uzunluğu :YOKC Il Kodu
D00000108#OF00000192#10067#Hatalı Alan Uzunluğu :YOKC Il Kodu
D00000109#OF00000039#10067#Hatalı Alan Uzunluğu :YOKC Il Kodu
D00000110#OF00000197#10067#Hatalı Alan Uzunluğu :YOKC Il Kodu
D00000111#OF00000199#10067#Hatalı Alan Uzunluğu :YOKC Il Kodu
D00000112#OF00000207#10067#Hatalı Alan Uzunluğu :YOKC Il Kodu
D00000113#OF00000214#10067#Hatalı Alan Uzunluğu :YOKC Il Kodu
D00000114#OF00000216#10067#Hatalı Alan Uzunluğu :YOKC Il Kodu
D00000115#OF00000071#10067#Hatalı Alan Uzunluğu :YOKC Il Kodu
D00000116#OF00000083#10067#Hatalı Alan Uzunluğu :YOKC Il Kodu
D00000117#OF00000084#10067#Hatalı Alan Uzunluğu :YOKC Il Kodu
D00000118#OF00000102#10067#Hatalı Alan Uzunluğu :YOKC Il Kodu
D00000119#OF00000106#10067#Hatalı Alan Uzunluğu :YOKC Il Kodu
D00000120#OF00000107#10067#Hatalı Alan Uzunluğu :YOKC Il Kodu
D00000121#OF00000104#10067#Hatalı Alan Uzunluğu :YOKC Il Kodu
D00000122#OF00000073#10067#Hatalı Alan Uzunluğu :YOKC Il Kodu
D00000123#OF00000080#10067#Hatalı Alan Uzunluğu :YOKC Il Kodu
D00000124#OF00000118#10067#Hatalı Alan Uzunluğu :YOKC Il Kodu
D00000125#OF00000077#10067#Hatalı Alan Uzunluğu :YOKC Il Kodu
D00000126#OF00000085#10067#Hatalı Alan Uzunluğu :YOKC Il Kodu
D00000127#OF00000046#10067#Hatalı Alan Uzunluğu :YOKC Il Kodu
D00000128#OF00000093#10067#Hatalı Alan Uzunluğu :YOKC Il Kodu
D00000129#OF00001069#10067#Hatalı Alan Uzunluğu :YOKC Il Kodu
D00000130#OF00000119#10067#Hatalı Alan Uzunluğu :YOKC Il Kodu
D00000131#OF00000124#10067#Hatalı Alan Uzunluğu :YOKC Il Kodu
D00000132#OF00000152#10067#Hatalı Alan Uzunluğu :YOKC Il Kodu
D00000133#OF00000155#10067#Hatalı Alan Uzunluğu :YOKC Il Kodu
D00000134#OF00000157#10067#Hatalı Alan Uzunluğu :YOKC Il Kodu
D00000135#OF00000072#10067#Hatalı Alan Uzunluğu :YOKC Il Kodu
D00000136#OF00000095#10067#Hatalı Alan Uzunluğu :YOKC Il Kodu
D00000137#OF00000088#10067#Hatalı Alan Uzunluğu :YOKC Il Kodu
D00000138#OF00000108#10067#Hatalı Alan Uzunluğu :YOKC Il Kodu
D00000139#OF00000112#10067#Hatalı Alan Uzunluğu :YOKC Il Kodu
D00000140#OF00000135#10067#Hatalı Alan Uzunluğu :YOKC Il Kodu
D00000141#OF00000159#10067#Hatalı Alan Uzunluğu :YOKC Il Kodu
D00000142#OF00000164#10067#Hatalı Alan Uzunluğu :YOKC Il Kodu
D00000143#OF00000174#10067#Hatalı Alan Uzunluğu :YOKC Il Kodu
D00000144#OF00000181#10067#Hatalı Alan Uzunluğu :YOKC Il Kodu
D00000145#OF00000225#10067#Hatalı Alan Uzunluğu :YOKC Il Kodu
D00000146#OF00000857#10009#Alanın degeri bos yada yanlış :Fatura Seri No
D00000147#OF00000008#10067#Hatalı Alan Uzunluğu :YOKC Il Kodu
D00000148#OF00000066#10067#Hatalı Alan Uzunluğu :YOKC Il Kodu
D00000149#OF00000029#10067#Hatalı Alan Uzunluğu :YOKC Il Kodu
D00000150#OF00000035#10067#Hatalı Alan Uzunluğu :YOKC Il Kodu
D00000151#OF00000038#10067#Hatalı Alan Uzunluğu :YOKC Il Kodu
D00000152#OF00000047#10067#Hatalı Alan Uzunluğu :YOKC Il Kodu
D00000153#OF00000178#10067#Hatalı Alan Uzunluğu :YOKC Il Kodu
D00000154#OF00000110#10067#Hatalı Alan Uzunluğu :YOKC Il Kodu
D00000155#OF00000131#10067#Hatalı Alan Uzunluğu :YOKC Il Kodu
D00000156#OF00000239#10067#Hatalı Alan Uzunluğu :YOKC Il Kodu
D00000157#OF00000240#10067#Hatalı Alan Uzunluğu :YOKC Il Kodu
D00000158#OF00000241#10067#Hatalı Alan Uzunluğu :YOKC Il Kodu
D00000159#OF00000143#10067#Hatalı Alan Uzunluğu :YOKC Il Kodu
D00000160#OF00000693#10067#Hatalı Alan Uzunluğu :YOKC Il Kodu
D00000161#OF00000822#10067#Hatalı Alan Uzunluğu :YOKC Il Kodu
D00000162#OF00000021#10067#Hatalı Alan Uzunluğu :YOKC Il Kodu
D00000163#OF00000053#10067#Hatalı Alan Uzunluğu :YOKC Il Kodu
D00000164#OF00000111#10067#Hatalı Alan Uzunluğu :YOKC Il Kodu
D00000165#OF00000076#10067#Hatalı Alan Uzunluğu :YOKC Il Kodu
D00000166#OF00000134#10009#Alanın degeri bos yada yanlış :Fatura Seri No
D00000167#OF00000168#10067#Hatalı Alan Uzunluğu :YOKC Il Kodu
D00000168#OF00000169#10067#Hatalı Alan Uzunluğu :YOKC Il Kodu
D00000169#OF00000175#10067#Hatalı Alan Uzunluğu :YOKC Il Kodu
D00000170#OF00000188#10067#Hatalı Alan Uzunluğu :YOKC Il Kodu
D00000171#OF00000186#10067#Hatalı Alan Uzunluğu :YOKC Il Kodu
D00000172#OF00000203#10067#Hatalı Alan Uzunluğu :YOKC Il Kodu
D00000173#OF00000209#10067#Hatalı Alan Uzunluğu :YOKC Il Kodu
D00000174#OF00000055#10067#Hatalı Alan Uzunluğu :YOKC Il Kodu
D00000175#OF00000218#10067#Hatalı Alan Uzunluğu :YOKC Il Kodu
D00000176#OF00000281#10067#Hatalı Alan Uzunluğu :YOKC Il Kodu
D00000177#OF00000282#10067#Hatalı Alan Uzunluğu :YOKC Il Kodu
D00000178#OF00000288#10067#Hatalı Alan Uzunluğu :YOKC Il Kodu
D00000179#OF00000293#10067#Hatalı Alan Uzunluğu :YOKC Il Kodu
D00000180#OF00000300#10067#Hatalı Alan Uzunluğu :YOKC Il Kodu
D00000181#OF00000261#10067#Hatalı Alan Uzunluğu :YOKC Il Kodu
D00000182#OF00000176#10067#Hatalı Alan Uzunluğu :YOKC Il Kodu
D00000183#OF00000184#10067#Hatalı Alan Uzunluğu :YOKC Il Kodu
D00000184#OF00000179#10067#Hatalı Alan Uzunluğu :YOKC Il Kodu
D00000185#OF00000202#10067#Hatalı Alan Uzunluğu :YOKC Il Kodu
D00000186#OF00000210#10067#Hatalı Alan Uzunluğu :YOKC Il Kodu
D00000187#OF00000213#10067#Hatalı Alan Uzunluğu :YOKC Il Kodu
D00000188#OF00000215#10067#Hatalı Alan Uzunluğu :YOKC Il Kodu
D00000189#OF00000217#10067#Hatalı Alan Uzunluğu :YOKC Il Kodu
D00000190#OF00000230#10067#Hatalı Alan Uzunluğu :YOKC Il Kodu
D00000191#OF00000231#10067#Hatalı Alan Uzunluğu :YOKC Il Kodu
D00000192#OF00000232#10067#Hatalı Alan Uzunluğu :YOKC Il Kodu
D00000193#OF00000233#10067#Hatalı Alan Uzunluğu :YOKC Il Kodu
D00000194#OF00000234#10067#Hatalı Alan Uzunluğu :YOKC Il Kodu
D00000195#OF00000235#10067#Hatalı Alan Uzunluğu :YOKC Il Kodu
D00000196#OF00000236#10067#Hatalı Alan Uzunluğu :YOKC Il Kodu
D00000197#OF00000237#10067#Hatalı Alan Uzunluğu :YOKC Il Kodu
D00000198#OF00000068#10067#Hatalı Alan Uzunluğu :YOKC Il Kodu
D00000199#OF00000082#10067#Hatalı Alan Uzunluğu :YOKC Il Kodu
D00000200#OF00001136#10067#Hatalı Alan Uzunluğu :YOKC Il Kodu
D00000201#OF00000158#10067#Hatalı Alan Uzunluğu :YOKC Il Kodu
D00000202#OF00000140#10067#Hatalı Alan Uzunluğu :YOKC Il Kodu
D00000203#OF00000074#10067#Hatalı Alan Uzunluğu :YOKC Il Kodu
D00000204#OF00000705#10067#Hatalı Alan Uzunluğu :YOKC Il Kodu
D00000205#OF00000779#10067#Hatalı Alan Uzunluğu :YOKC Il Kodu
D00000206#OF00000844#10067#Hatalı Alan Uzunluğu :YOKC Il Kodu
D00000207#OF00000831#10009#Alanın degeri bos yada yanlış :Fatura Seri No
D00000208#OF00000840#10009#Alanın degeri bos yada yanlış :Fatura Seri No
D00000209#OF00001039#10009#Alanın degeri bos yada yanlış :Fatura Seri No
D00000210#OF00000012#10067#Hatalı Alan Uzunluğu :YOKC Il Kodu
D00000211#OF00000133#10067#Hatalı Alan Uzunluğu :YOKC Il Kodu
D00000212#OF00000120#10067#Hatalı Alan Uzunluğu :YOKC Il Kodu
D00000213#OF00000139#10067#Hatalı Alan Uzunluğu :YOKC Il Kodu
D00000214#OF00000142#10067#Hatalı Alan Uzunluğu :YOKC Il Kodu
D00000215#OF00000058#10067#Hatalı Alan Uzunluğu :YOKC Il Kodu
D00000216#OF00000079#10067#Hatalı Alan Uzunluğu :YOKC Il Kodu
D00000217#OF00000114#10067#Hatalı Alan Uzunluğu :YOKC Il Kodu
D00000218#OF00000091#10067#Hatalı Alan Uzunluğu :YOKC Il Kodu
D00000219#OF00001071#10009#Alanın degeri bos yada yanlış :Fatura Seri No
D00000220#OF00000003#10067#Hatalı Alan Uzunluğu :YOKC Il Kodu
D00000221#OF00000851#10067#Hatalı Alan Uzunluğu :YOKC Il Kodu
D00000222#OF00000002#10067#Hatalı Alan Uzunluğu :YOKC Il Kodu
D00000223#OF00000415#10067#Hatalı Alan Uzunluğu :YOKC Il Kodu
D00000224#OF00000221#10067#Hatalı Alan Uzunluğu :YOKC Il Kodu
D00000225#OF00000227#10067#Hatalı Alan Uzunluğu :YOKC Il Kodu
D00000226#OF00000228#10067#Hatalı Alan Uzunluğu :YOKC Il Kodu
D00000227#OF00000229#10067#Hatalı Alan Uzunluğu :YOKC Il Kodu
D00000228#OF00000242#10009#Alanın degeri bos yada yanlış :Fatura Seri No
D00000229#OF00000248#10067#Hatalı Alan Uzunluğu :YOKC Il Kodu
D00000230#OF00000252#10067#Hatalı Alan Uzunluğu :YOKC Il Kodu
D00000231#OF00000256#10067#Hatalı Alan Uzunluğu :YOKC Il Kodu
D00000232#OF00000115#10067#Hatalı Alan Uzunluğu :YOKC Il Kodu
D00000233#OF00000148#10067#Hatalı Alan Uzunluğu :YOKC Il Kodu
D00000234#OF00000100#10067#Hatalı Alan Uzunluğu :YOKC Il Kodu
D00000235#OF00000222#10067#Hatalı Alan Uzunluğu :YOKC Il Kodu
D00000236#OF00000037#10067#Hatalı Alan Uzunluğu :YOKC Il Kodu
D00000237#OF00000177#10009#Alanın degeri bos yada yanlış :Fatura Seri No
D00000238#OF00000211#10009#Alanın degeri bos yada yanlış :Fatura Seri No
D00000239#OF00000204#10009#Alanın degeri bos yada yanlış :Fatura Seri No
D00000240#OF00000196#10009#Alanın degeri bos yada yanlış :Fatura Seri No
D00000241#OF00000032#10067#Hatalı Alan Uzunluğu :YOKC Il Kodu
D00000242#OF00000195#10009#Alanın degeri bos yada yanlış :Fatura Seri No
D00000243#OF00000200#10009#Alanın degeri bos yada yanlış :Fatura Seri No
D00000244#OF00000201#10009#Alanın degeri bos yada yanlış :Fatura Seri No
D00000245#OF00000161#10067#Hatalı Alan Uzunluğu :YOKC Il Kodu
D00000246#OF00000167#10009#Alanın degeri bos yada yanlış :Fatura Seri No
D00000247#OF00000170#10009#Alanın degeri bos yada yanlış :Fatura Seri No
D00000248#OF00000173#10009#Alanın degeri bos yada yanlış :Fatura Seri No
D00000249#OF00000185#10009#Alanın degeri bos yada yanlış :Fatura Seri No
D00000250#OF00000206#10009#Alanın degeri bos yada yanlış :Fatura Seri No
D00000251#OF00000212#10009#Alanın degeri bos yada yanlış :Fatura Seri No
D00000252#OF00000291#10067#Hatalı Alan Uzunluğu :YOKC Il Kodu
D00000253#OF00000092#10067#Hatalı Alan Uzunluğu :YOKC Il Kodu
D00000254#OF00000147#10067#Hatalı Alan Uzunluğu :YOKC Il Kodu
D00000255#OF00000096#10067#Hatalı Alan Uzunluğu :YOKC Il Kodu
D00000256#OF00000113#10067#Hatalı Alan Uzunluğu :YOKC Il Kodu
D00000257#OF00000045#10067#Hatalı Alan Uzunluğu :YOKC Il Kodu
D00000258#OF00000075#10067#Hatalı Alan Uzunluğu :YOKC Il Kodu
D00000259#OF00001154#10009#Alanın degeri bos yada yanlış :Fatura Seri No
D00000260#OF00000395#10009#Alanın degeri bos yada yanlış :Fatura Seri No
D00000261#OF00000461#10009#Alanın degeri bos yada yanlış :Fatura Seri No
D00000262#OF00000462#10009#Alanın degeri bos yada yanlış :Fatura Seri No
D00000263#OF00000464#10009#Alanın degeri bos yada yanlış :Fatura Seri No
D00000264#OF00000465#10009#Alanın degeri bos yada yanlış :Fatura Seri No
D00000265#OF00000466#10009#Alanın degeri bos yada yanlış :Fatura Seri No
D00000266#OF00000469#10009#Alanın degeri bos yada yanlış :Fatura Seri No
D00000267#OF00000470#10009#Alanın degeri bos yada yanlış :Fatura Seri No
D00000268#OF00000471#10009#Alanın degeri bos yada yanlış :Fatura Seri No
D00000269#OF00000472#10009#Alanın degeri bos yada yanlış :Fatura Seri No
D00000270#OF00000474#10009#Alanın degeri bos yada yanlış :Fatura Seri No
D00000271#OF00000475#10009#Alanın degeri bos yada yanlış :Fatura Seri No
D00000272#OF00000478#10009#Alanın degeri bos yada yanlış :Fatura Seri No
D00000273#OF00000479#10009#Alanın degeri bos yada yanlış :Fatura Seri No
D00000274#OF00000480#10009#Alanın degeri bos yada yanlış :Fatura Seri No
D00000275#OF00001153#10067#Hatalı Alan Uzunluğu :YOKC Il Kodu
D00000276#OF00001139#10067#Hatalı Alan Uzunluğu :YOKC Il Kodu
D00000277#OF00001151#10067#Hatalı Alan Uzunluğu :YOKC Il Kodu
D00000278#OF00001145#10067#Hatalı Alan Uzunluğu :YOKC Il Kodu
D00000279#OF00001141#10067#Hatalı Alan Uzunluğu :YOKC Il Kodu
D00000280#OF00001138#10067#Hatalı Alan Uzunluğu :YOKC Il Kodu
D00000281#OF00001142#10067#Hatalı Alan Uzunluğu :YOKC Il Kodu
D00000282#OF00001143#10067#Hatalı Alan Uzunluğu :YOKC Il Kodu
D00000283#OF00001152#10067#Hatalı Alan Uzunluğu :YOKC Il Kodu
D00000284#OF00001144#10067#Hatalı Alan Uzunluğu :YOKC Il Kodu
D00000285#OF00000304#10067#Hatalı Alan Uzunluğu :YOKC Il Kodu
D00000286#OF00001149#10067#Hatalı Alan Uzunluğu :YOKC Il Kodu
D00000287#OF00001150#10067#Hatalı Alan Uzunluğu :YOKC Il Kodu
D00000288#OF00000440#10067#Hatalı Alan Uzunluğu :YOKC Il Kodu
D00000289#OF00000436#10067#Hatalı Alan Uzunluğu :YOKC Il Kodu
D00000290#OF00000444#10067#Hatalı Alan Uzunluğu :YOKC Il Kodu
D00000291#OF00000432#10067#Hatalı Alan Uzunluğu :YOKC Il Kodu
D00000292#OF00000435#10067#Hatalı Alan Uzunluğu :YOKC Il Kodu
D00000293#OF00000437#10067#Hatalı Alan Uzunluğu :YOKC Il Kodu
D00000294#OF00000450#10067#Hatalı Alan Uzunluğu :YOKC Il Kodu
D00000295#OF00000446#10067#Hatalı Alan Uzunluğu :YOKC Il Kodu
D00000296#OF00000430#10067#Hatalı Alan Uzunluğu :YOKC Il Kodu
D00000297#OF00000439#10067#Hatalı Alan Uzunluğu :YOKC Il Kodu
D00000298#OF00000448#10067#Hatalı Alan Uzunluğu :YOKC Il Kodu
D00000299#OF00000449#10067#Hatalı Alan Uzunluğu :YOKC Il Kodu
D00000300#OF00000429#10067#Hatalı Alan Uzunluğu :YOKC Il Kodu
D00000301#OF00000453#10067#Hatalı Alan Uzunluğu :YOKC Il Kodu
D00000302#OF00000456#10067#Hatalı Alan Uzunluğu :YOKC Il Kodu
D00000303#OF00000434#10067#Hatalı Alan Uzunluğu :YOKC Il Kodu
D00000304#OF00000451#10067#Hatalı Alan Uzunluğu :YOKC Il Kodu
D00000305#OF00000441#10067#Hatalı Alan Uzunluğu :YOKC Il Kodu
D00000306#OF00000452#10067#Hatalı Alan Uzunluğu :YOKC Il Kodu
D00000307#OF00000438#10067#Hatalı Alan Uzunluğu :YOKC Il Kodu
D00000308#OF00000455#10067#Hatalı Alan Uzunluğu :YOKC Il Kodu
D00000309#OF00000454#10067#Hatalı Alan Uzunluğu :YOKC Il Kodu
D00000310#OF00000443#10067#Hatalı Alan Uzunluğu :YOKC Il Kodu
D00000311#OF00000431#10067#Hatalı Alan Uzunluğu :YOKC Il Kodu
D00000312#OF00000433#10067#Hatalı Alan Uzunluğu :YOKC Il Kodu
D00000313#OF00000445#10067#Hatalı Alan Uzunluğu :YOKC Il Kodu
D00000314#OF00000447#10067#Hatalı Alan Uzunluğu :YOKC Il Kodu
D00000315#OF00000442#10067#Hatalı Alan Uzunluğu :YOKC Il Kodu
D00000316#OF00000388#10067#Hatalı Alan Uzunluğu :YOKC Il Kodu
D00000317#OF00001137#10009#Alanın degeri bos yada yanlış :Fatura Seri No
D00000318#OF00001133#10067#Hatalı Alan Uzunluğu :YOKC Il Kodu
D00000319#OF00001127#10067#Hatalı Alan Uzunluğu :YOKC Il Kodu
D00000320#OF00001131#10067#Hatalı Alan Uzunluğu :YOKC Il Kodu
D00000321#OF00001134#10067#Hatalı Alan Uzunluğu :YOKC Il Kodu
D00000322#OF00001135#10067#Hatalı Alan Uzunluğu :YOKC Il Kodu
D00000323#OF00001128#10009#Alanın degeri bos yada yanlış :Fatura Seri No
D00000324#OF00001129#10009#Alanın degeri bos yada yanlış :Fatura Seri No
D00000325#OF00001130#10009#Alanın degeri bos yada yanlış :Fatura Seri No
D00000326#OF00000380#10067#Hatalı Alan Uzunluğu :YOKC Il Kodu
D00000327#OF00000381#10067#Hatalı Alan Uzunluğu :YOKC Il Kodu
D00000328#OF00000382#10067#Hatalı Alan Uzunluğu :YOKC Il Kodu
D00000329#OF00000383#10067#Hatalı Alan Uzunluğu :YOKC Il Kodu
D00000330#OF00000384#10067#Hatalı Alan Uzunluğu :YOKC Il Kodu
D00000331#OF00000385#10067#Hatalı Alan Uzunluğu :YOKC Il Kodu
D00000332#OF00001116#10067#Hatalı Alan Uzunluğu :YOKC Il Kodu
D00000333#OF00001117#10067#Hatalı Alan Uzunluğu :YOKC Il Kodu
D00000334#OF00001119#10067#Hatalı Alan Uzunluğu :YOKC Il Kodu
D00000335#OF00001120#10067#Hatalı Alan Uzunluğu :YOKC Il Kodu
D00000336#OF00001121#10009#Alanın degeri bos yada yanlış :Fatura Seri No
D00000337#OF00001123#10067#Hatalı Alan Uzunluğu :YOKC Il Kodu
D00000338#OF00001124#10067#Hatalı Alan Uzunluğu :YOKC Il Kodu
D00000339#OF00001125#10067#Hatalı Alan Uzunluğu :YOKC Il Kodu
D00000340#OF00001126#10067#Hatalı Alan Uzunluğu :YOKC Il Kodu
D00000341#OF00001044#10067#Hatalı Alan Uzunluğu :YOKC Il Kodu
D00000342#OF00001045#10067#Hatalı Alan Uzunluğu :YOKC Il Kodu
D00000343#OF00001046#10067#Hatalı Alan Uzunluğu :YOKC Il Kodu
D00000344#OF00001047#10067#Hatalı Alan Uzunluğu :YOKC Il Kodu
D00000345#OF00001048#10067#Hatalı Alan Uzunluğu :YOKC Il Kodu
D00000346#OF00001049#10067#Hatalı Alan Uzunluğu :YOKC Il Kodu
D00000347#OF00001050#10067#Hatalı Alan Uzunluğu :YOKC Il Kodu
D00000348#OF00001051#10067#Hatalı Alan Uzunluğu :YOKC Il Kodu
D00000349#OF00001052#10067#Hatalı Alan Uzunluğu :YOKC Il Kodu
D00000350#OF00001053#10067#Hatalı Alan Uzunluğu :YOKC Il Kodu
D00000351#OF00001054#10067#Hatalı Alan Uzunluğu :YOKC Il Kodu
D00000352#OF00001055#10067#Hatalı Alan Uzunluğu :YOKC Il Kodu
D00000353#OF00001056#10067#Hatalı Alan Uzunluğu :YOKC Il Kodu
D00000354#OF00001057#10067#Hatalı Alan Uzunluğu :YOKC Il Kodu
D00000355#OF00001058#10067#Hatalı Alan Uzunluğu :YOKC Il Kodu
D00000356#OF00001059#10067#Hatalı Alan Uzunluğu :YOKC Il Kodu
D00000357#OF00001060#10067#Hatalı Alan Uzunluğu :YOKC Il Kodu
D00000358#OF00001061#10067#Hatalı Alan Uzunluğu :YOKC Il Kodu
D00000359#OF00001062#10067#Hatalı Alan Uzunluğu :YOKC Il Kodu
D00000360#OF00001063#10067#Hatalı Alan Uzunluğu :YOKC Il Kodu
D00000361#OF00001064#10067#Hatalı Alan Uzunluğu :YOKC Il Kodu
D00000362#OF00001065#10067#Hatalı Alan Uzunluğu :YOKC Il Kodu
D00000363#OF00001066#10067#Hatalı Alan Uzunluğu :YOKC Il Kodu
D00000364#OF00000900#10067#Hatalı Alan Uzunluğu :YOKC Il Kodu
D00000365#OF00000908#10067#Hatalı Alan Uzunluğu :YOKC Il Kodu
D00000366#OF00000087#10067#Hatalı Alan Uzunluğu :YOKC Il Kodu
D00000367#OF00000303#10067#Hatalı Alan Uzunluğu :YOKC Il Kodu
D00000368#OF00000243#10067#Hatalı Alan Uzunluğu :YOKC Il Kodu
D00000369#OF00000253#10067#Hatalı Alan Uzunluğu :YOKC Il Kodu
D00000370#OF00000305#10067#Hatalı Alan Uzunluğu :YOKC Il Kodu
D00000371#OF00000302#10067#Hatalı Alan Uzunluğu :YOKC Il Kodu
D00000372#OF00000247#10067#Hatalı Alan Uzunluğu :YOKC Il Kodu
D00000373#OF00000722#10067#Hatalı Alan Uzunluğu :YOKC Il Kodu
D00000374#OF00000255#10067#Hatalı Alan Uzunluğu :YOKC Il Kodu
D00000375#OF00000836#10067#Hatalı Alan Uzunluğu :YOKC Il Kodu
D00000376#OF00000825#10067#Hatalı Alan Uzunluğu :YOKC Il Kodu
D00000377#OF00000105#10067#Hatalı Alan Uzunluğu :YOKC Il Kodu
D00000378#OF00000306#10067#Hatalı Alan Uzunluğu :YOKC Il Kodu
D00000379#OF00000864#10067#Hatalı Alan Uzunluğu :YOKC Il Kodu
D00000380#OF00000860#10067#Hatalı Alan Uzunluğu :YOKC Il Kodu
D00000381#OF00000841#10067#Hatalı Alan Uzunluğu :YOKC Il Kodu
D00000382#OF00000761#10067#Hatalı Alan Uzunluğu :YOKC Il Kodu
D00000383#OF00000842#10067#Hatalı Alan Uzunluğu :YOKC Il Kodu
D00000384#OF00000780#10067#Hatalı Alan Uzunluğu :YOKC Il Kodu
D00000385#OF00000843#10067#Hatalı Alan Uzunluğu :YOKC Il Kodu
D00000386#OF00000912#10067#Hatalı Alan Uzunluğu :YOKC Il Kodu
D00000387#OF00000935#10067#Hatalı Alan Uzunluğu :YOKC Il Kodu
D00000388#OF00000925#10067#Hatalı Alan Uzunluğu :YOKC Il Kodu
D00000389#OF00001078#10067#Hatalı Alan Uzunluğu :YOKC Il Kodu
D00000390#OF00001080#10067#Hatalı Alan Uzunluğu :YOKC Il Kodu
D00000391#OF00001157#10067#Hatalı Alan Uzunluğu :YOKC Il Kodu
D00000392#OF00001107#10009#Alanın degeri bos yada yanlış :Fatura Seri No
D00000393#OF00001182#10067#Hatalı Alan Uzunluğu :YOKC Il Kodu
D00000394#OF00001097#10067#Hatalı Alan Uzunluğu :YOKC Il Kodu
D00000395#OF00001093#10067#Hatalı Alan Uzunluğu :YOKC Il Kodu
D00000396#OF00001091#10067#Hatalı Alan Uzunluğu :YOKC Il Kodu
D00000397#OF00001094#10067#Hatalı Alan Uzunluğu :YOKC Il Kodu
D00000398#OF00001098#10067#Hatalı Alan Uzunluğu :YOKC Il Kodu
D00000399#OF00001092#10067#Hatalı Alan Uzunluğu :YOKC Il Kodu
D00000400#OF00001096#10067#Hatalı Alan Uzunluğu :YOKC Il Kodu
D00000401#OF00001095#10067#Hatalı Alan Uzunluğu :YOKC Il Kodu
D00000402#OF00000789#10067#Hatalı Alan Uzunluğu :YOKC Il Kodu
D00000403#OF00000861#10067#Hatalı Alan Uzunluğu :YOKC Il Kodu
D00000404#OF00000856#10067#Hatalı Alan Uzunluğu :YOKC Il Kodu
D00000405#OF00000852#10067#Hatalı Alan Uzunluğu :YOKC Il Kodu
D00000406#OF00000850#10067#Hatalı Alan Uzunluğu :YOKC Il Kodu
D00000407#OF00000244#10067#Hatalı Alan Uzunluğu :YOKC Il Kodu
D00000408#OF00000828#10009#Alanın degeri bos yada yanlış :Fatura Seri No
D00000409#OF00000829#10009#Alanın degeri bos yada yanlış :Fatura Seri No
D00000410#OF00000832#10009#Alanın degeri bos yada yanlış :Fatura Seri No
D00000411#OF00000833#10009#Alanın degeri bos yada yanlış :Fatura Seri No
D00000412#OF00000847#10009#Alanın degeri bos yada yanlış :Fatura Seri No
D00000413#OF00000756#10009#Alanın degeri bos yada yanlış :Fatura Seri No
D00000414#OF00000767#10009#Alanın degeri bos yada yanlış :Fatura Seri No
D00000415#OF00000774#10009#Alanın degeri bos yada yanlış :Fatura Seri No
D00000416#OF00000786#10067#Hatalı Alan Uzunluğu :YOKC Il Kodu
D00000417#OF00000820#10009#Alanın degeri bos yada yanlış :Fatura Seri No
D00000418#OF00000793#10009#Alanın degeri bos yada yanlış :Fatura Seri No
D00000419#OF00000816#10009#Alanın degeri bos yada yanlış :Fatura Seri No
D00000420#OF00000818#10009#Alanın degeri bos yada yanlış :Fatura Seri No
D00000421#OF00000821#10009#Alanın degeri bos yada yanlış :Fatura Seri No
D00000422#OF00000819#10009#Alanın degeri bos yada yanlış :Fatura Seri No
D00000423#OF00000753#10067#Hatalı Alan Uzunluğu :YOKC Il Kodu
D00000424#OF00000796#10009#Alanın degeri bos yada yanlış :Fatura Seri No
D00000425#OF00000799#10009#Alanın degeri bos yada yanlış :Fatura Seri No
D00000426#OF00000803#10009#Alanın degeri bos yada yanlış :Fatura Seri No
D00000427#OF00000805#10009#Alanın degeri bos yada yanlış :Fatura Seri No
D00000428#OF00000807#10009#Alanın degeri bos yada yanlış :Fatura Seri No
D00000429#OF00000772#10067#Hatalı Alan Uzunluğu :YOKC Il Kodu
D00000430#OF00000150#10067#Hatalı Alan Uzunluğu :YOKC Il Kodu
D00000431#OF00000219#10067#Hatalı Alan Uzunluğu :YOKC Il Kodu
D00000432#OF00000834#10067#Hatalı Alan Uzunluğu :YOKC Il Kodu
D00000433#OF00000797#10009#Alanın degeri bos yada yanlış :Fatura Seri No
D00000434#OF00000835#10067#Hatalı Alan Uzunluğu :YOKC Il Kodu
D00000435#OF00000146#10067#Hatalı Alan Uzunluğu :YOKC Il Kodu
D00000436#OF00000130#10067#Hatalı Alan Uzunluğu :YOKC Il Kodu
D00000437#OF00000123#10067#Hatalı Alan Uzunluğu :YOKC Il Kodu
D00000438#OF00000748#10067#Hatalı Alan Uzunluğu :YOKC Il Kodu
D00000439#OF00000145#10067#Hatalı Alan Uzunluğu :YOKC Il Kodu
D00000440#OF00000048#10009#Alanın degeri bos yada yanlış :Fatura Seri No
D00000441#OF00000279#10009#Alanın degeri bos yada yanlış :Fatura Seri No
D00000442#OF00000280#10009#Alanın degeri bos yada yanlış :Fatura Seri No
D00000443#OF00000827#10067#Hatalı Alan Uzunluğu :YOKC Il Kodu
D00000444#OF00000171#10009#Alanın degeri bos yada yanlış :Fatura Seri No
D00000445#OF00000268#10009#Alanın degeri bos yada yanlış :Fatura Seri No
D00000446#OF00000116#10067#Hatalı Alan Uzunluğu :YOKC Il Kodu
D00000447#OF00000294#10009#Alanın degeri bos yada yanlış :Fatura Seri No
D00000448#OF00000208#10009#Alanın degeri bos yada yanlış :Fatura Seri No
D00000449#OF00000292#10009#Alanın degeri bos yada yanlış :Fatura Seri No
D00000450#OF00000238#10009#Alanın degeri bos yada yanlış :Fatura Seri No
D00000451#OF00000138#10067#Hatalı Alan Uzunluğu :YOKC Il Kodu
D00000452#OF00000153#10067#Hatalı Alan Uzunluğu :YOKC Il Kodu
D00000453#OF00000151#10067#Hatalı Alan Uzunluğu :YOKC Il Kodu
D00000454#OF00000156#10067#Hatalı Alan Uzunluğu :YOKC Il Kodu
D00000455#OF00000183#10067#Hatalı Alan Uzunluğu :YOKC Il Kodu
D00000456#OF00000198#10067#Hatalı Alan Uzunluğu :YOKC Il Kodu
D00000457#OF00001111#10009#Alanın degeri bos yada yanlış :Fatura Seri No
D00000458#OF00001112#10009#Alanın degeri bos yada yanlış :Fatura Seri No
D00000459#OF00001113#10009#Alanın degeri bos yada yanlış :Fatura Seri No
D00000460#OF00001114#10009#Alanın degeri bos yada yanlış :Fatura Seri No
D00000461#OF00001115#10067#Hatalı Alan Uzunluğu :YOKC Il Kodu
D00000462#OF00000387#10067#Hatalı Alan Uzunluğu :YOKC Il Kodu
D00000463#OF00000386#10067#Hatalı Alan Uzunluğu :YOKC Il Kodu
D00000464#OF00001108#10067#Hatalı Alan Uzunluğu :YOKC Il Kodu
D00000465#OF00001109#10067#Hatalı Alan Uzunluğu :YOKC Il Kodu
D00000466#OF00001105#10009#Alanın degeri bos yada yanlış :Fatura Seri No
D00000467#OF00001099#10009#Alanın degeri bos yada yanlış :Fatura Seri No
D00000468#OF00001087#10009#Alanın degeri bos yada yanlış :Fatura Seri No
D00000469#OF00001086#10067#Hatalı Alan Uzunluğu :YOKC Il Kodu
D00000470#OF00001077#10067#Hatalı Alan Uzunluğu :YOKC Il Kodu
D00000471#OF00001036#10067#Hatalı Alan Uzunluğu :YOKC Il Kodu
D00000472#OF00001040#10067#Hatalı Alan Uzunluğu :YOKC Il Kodu
D00000473#OF00001067#10009#Alanın degeri bos yada yanlış :Fatura Seri No
D00000474#OF00001074#10009#Alanın degeri bos yada yanlış :Fatura Seri No
D00000475#OF00001072#10009#Alanın degeri bos yada yanlış :Fatura Seri No
D00000476#OF00001076#10009#Alanın degeri bos yada yanlış :Fatura Seri No
D00000477#OF00001075#10009#Alanın degeri bos yada yanlış :Fatura Seri No
D00000478#OF00001073#10009#Alanın degeri bos yada yanlış :Fatura Seri No
D00000479#OF00001070#10067#Hatalı Alan Uzunluğu :YOKC Il Kodu
D00000480#OF00000956#10067#Hatalı Alan Uzunluğu :YOKC Il Kodu
D00000481#OF00000959#10009#Alanın degeri bos yada yanlış :Fatura Seri No
D00000482#OF00000960#10009#Alanın degeri bos yada yanlış :Fatura Seri No
D00000483#OF00000942#10009#Alanın degeri bos yada yanlış :Fatura Seri No
D00000484#OF00000947#10009#Alanın degeri bos yada yanlış :Fatura Seri No
D00000485#OF00000943#10009#Alanın degeri bos yada yanlış :Fatura Seri No
D00000486#OF00000944#10009#Alanın degeri bos yada yanlış :Fatura Seri No
D00000487#OF00000945#10009#Alanın degeri bos yada yanlış :Fatura Seri No
D00000488#OF00000946#10009#Alanın degeri bos yada yanlış :Fatura Seri No
D00000489#OF00000934#10009#Alanın degeri bos yada yanlış :Fatura Seri No
D00000490#OF00000933#10009#Alanın degeri bos yada yanlış :Fatura Seri No
D00000491#OF00000931#10009#Alanın degeri bos yada yanlış :Fatura Seri No
D00000492#OF00000254#10067#Hatalı Alan Uzunluğu :YOKC Il Kodu
D00000493#OF00000939#10009#Alanın degeri bos yada yanlış :Fatura Seri No
D00000494#OF00000930#10009#Alanın degeri bos yada yanlış :Fatura Seri No
D00000495#OF00000938#10067#Hatalı Alan Uzunluğu :YOKC Il Kodu
D00000496#OF00000937#10009#Alanın degeri bos yada yanlış :Fatura Seri No
D00000497#OF00000927#10067#Hatalı Alan Uzunluğu :YOKC Il Kodu
D00000498#OF00000936#10009#Alanın degeri bos yada yanlış :Fatura Seri No
D00000499#OF00000928#10009#Alanın degeri bos yada yanlış :Fatura Seri No
D00000500#OF00000926#10009#Alanın degeri bos yada yanlış :Fatura Seri No
D00000501#OF00000952#10009#Alanın degeri bos yada yanlış :Fatura Seri No
D00000502#OF00000929#10009#Alanın degeri bos yada yanlış :Fatura Seri No
D00000503#OF00000921#10067#Hatalı Alan Uzunluğu :YOKC Il Kodu
D00000504#OF00000911#10067#Hatalı Alan Uzunluğu :YOKC Il Kodu
D00000505#OF00000919#10067#Hatalı Alan Uzunluğu :YOKC Il Kodu
D00000506#OF00000918#10067#Hatalı Alan Uzunluğu :YOKC Il Kodu
D00000507#OF00000922#10067#Hatalı Alan Uzunluğu :YOKC Il Kodu
D00000508#OF00000901#10009#Alanın degeri bos yada yanlış :Fatura Seri No
D00000509#OF00000865#10009#Alanın degeri bos yada yanlış :Fatura Seri No
D00000510#OF00000882#10009#Alanın degeri bos yada yanlış :Fatura Seri No
D00000511#OF00000781#10009#Alanın degeri bos yada yanlış :Fatura Seri No
D00000512#OF00000898#10009#Alanın degeri bos yada yanlış :Fatura Seri No
D00000513#OF00000905#10009#Alanın degeri bos yada yanlış :Fatura Seri No
D00000514#OF00000903#10009#Alanın degeri bos yada yanlış :Fatura Seri No
D00000515#OF00000883#10067#Hatalı Alan Uzunluğu :YOKC Il Kodu
D00000516#OF00000853#10009#Alanın degeri bos yada yanlış :Fatura Tarihi
D00000517#OF00000870#10009#Alanın degeri bos yada yanlış :Fatura Tarihi
D00000518#OF00000719#10009#Alanın degeri bos yada yanlış :Fatura Tarihi
D00000519#OF00000830#10009#Alanın degeri bos yada yanlış :Fatura Tarihi
D00000520#OF00000729#10009#Alanın degeri bos yada yanlış :Fatura Tarihi
D00000521#OF00000622#10009#Alanın degeri bos yada yanlış :Fatura Tarihi
D00000522#OF00000639#10009#Alanın degeri bos yada yanlış :Fatura Tarihi
D00000523#OF00000643#10009#Alanın degeri bos yada yanlış :Fatura Tarihi
D00000524#OF00000644#10009#Alanın degeri bos yada yanlış :Fatura Tarihi
D00000525#OF00000645#10009#Alanın degeri bos yada yanlış :Fatura Tarihi
D00000526#OF00000646#10009#Alanın degeri bos yada yanlış :Fatura Tarihi
D00000527#OF00000647#10009#Alanın degeri bos yada yanlış :Fatura Tarihi
D00000528#OF00000648#10009#Alanın degeri bos yada yanlış :Fatura Tarihi
D00000529#OF00000649#10009#Alanın degeri bos yada yanlış :Fatura Tarihi
D00000530#OF00000650#10009#Alanın degeri bos yada yanlış :Fatura Tarihi
D00000531#OF00000651#10009#Alanın degeri bos yada yanlış :Fatura Tarihi
D00000532#OF00000652#10009#Alanın degeri bos yada yanlış :Fatura Tarihi
D00000533#OF00000653#10009#Alanın degeri bos yada yanlış :Fatura Tarihi
D00000534#OF00000654#10009#Alanın degeri bos yada yanlış :Fatura Tarihi
D00000535#OF00000655#10009#Alanın degeri bos yada yanlış :Fatura Tarihi
D00000536#OF00000656#10009#Alanın degeri bos yada yanlış :Fatura Tarihi
D00000537#OF00000657#10009#Alanın degeri bos yada yanlış :Fatura Tarihi
D00000538#OF00000658#10009#Alanın degeri bos yada yanlış :Fatura Tarihi
D00000539#OF00000659#10009#Alanın degeri bos yada yanlış :Fatura Tarihi
D00000540#OF00000660#10009#Alanın degeri bos yada yanlış :Fatura Tarihi
D00000541#OF00000661#10009#Alanın degeri bos yada yanlış :Fatura Tarihi
D00000542#OF00000662#10009#Alanın degeri bos yada yanlış :Fatura Tarihi
D00000543#OF00000663#10009#Alanın degeri bos yada yanlış :Fatura Tarihi
D00000544#OF00000664#10009#Alanın degeri bos yada yanlış :Fatura Tarihi
D00000545#OF00000665#10009#Alanın degeri bos yada yanlış :Fatura Tarihi
D00000546#OF00000666#10009#Alanın degeri bos yada yanlış :Fatura Tarihi
D00000547#OF00000667#10009#Alanın degeri bos yada yanlış :Fatura Tarihi
D00000548#OF00000668#10009#Alanın degeri bos yada yanlış :Fatura Tarihi
D00000549#OF00000671#10009#Alanın degeri bos yada yanlış :Fatura Tarihi
D00000550#OF00000672#10009#Alanın degeri bos yada yanlış :Fatura Tarihi
D00000551#OF00000673#10009#Alanın degeri bos yada yanlış :Fatura Tarihi
D00000552#OF00000674#10009#Alanın degeri bos yada yanlış :Fatura Tarihi
D00000553#OF00000675#10009#Alanın degeri bos yada yanlış :Fatura Tarihi
D00000554#OF00000676#10009#Alanın degeri bos yada yanlış :Fatura Tarihi
D00000555#OF00000677#10009#Alanın degeri bos yada yanlış :Fatura Tarihi
D00000556#OF00000678#10009#Alanın degeri bos yada yanlış :Fatura Tarihi
D00000557#OF00000679#10009#Alanın degeri bos yada yanlış :Fatura Tarihi
D00000558#OF00000680#10009#Alanın degeri bos yada yanlış :Fatura Tarihi
D00000559#OF00000681#10009#Alanın degeri bos yada yanlış :Fatura Tarihi
D00000560#OF00000682#10009#Alanın degeri bos yada yanlış :Fatura Tarihi
D00000561#OF00000683#10009#Alanın degeri bos yada yanlış :Fatura Tarihi
D00000562#OF00000684#10009#Alanın degeri bos yada yanlış :Fatura Tarihi
D00000563#OF00000686#10009#Alanın degeri bos yada yanlış :Fatura Tarihi
D00000564#OF00000687#10009#Alanın degeri bos yada yanlış :Fatura Tarihi
D00000565#OF00000688#10009#Alanın degeri bos yada yanlış :Fatura Tarihi
D00000566#OF00000689#10009#Alanın degeri bos yada yanlış :Fatura Tarihi
D00000567#OF00000690#10009#Alanın degeri bos yada yanlış :Fatura Tarihi
D00000568#OF00000692#10009#Alanın degeri bos yada yanlış :Fatura Tarihi
D00000569#OF00000694#10009#Alanın degeri bos yada yanlış :Fatura Tarihi
D00000570#OF00000696#10009#Alanın degeri bos yada yanlış :Fatura Tarihi
D00000571#OF00000697#10009#Alanın degeri bos yada yanlış :Fatura Tarihi
D00000572#OF00000698#10009#Alanın degeri bos yada yanlış :Fatura Tarihi
D00000573#OF00000700#10009#Alanın degeri bos yada yanlış :Fatura Tarihi
D00000574#OF00000701#10009#Alanın degeri bos yada yanlış :Fatura Tarihi
D00000575#OF00000702#10009#Alanın degeri bos yada yanlış :Fatura Tarihi
D00000576#OF00000703#10009#Alanın degeri bos yada yanlış :Fatura Tarihi
D00000577#OF00000704#10009#Alanın degeri bos yada yanlış :Fatura Tarihi
D00000578#OF00000708#10009#Alanın degeri bos yada yanlış :Fatura Tarihi
D00000579#OF00000710#10009#Alanın degeri bos yada yanlış :Fatura Tarihi
D00000580#OF00000711#10009#Alanın degeri bos yada yanlış :Fatura Tarihi
D00000581#OF00000713#10009#Alanın degeri bos yada yanlış :Fatura Tarihi
D00000582#OF00000714#10009#Alanın degeri bos yada yanlış :Fatura Tarihi
D00000583#OF00000715#10009#Alanın degeri bos yada yanlış :Fatura Tarihi
D00000584#OF00000716#10009#Alanın degeri bos yada yanlış :Fatura Tarihi
D00000585#OF00000717#10009#Alanın degeri bos yada yanlış :Fatura Tarihi
D00000586#OF00000006#10009#Alanın degeri bos yada yanlış :Fatura Tarihi
D00000587#OF00000004#10009#Alanın degeri bos yada yanlış :Fatura Tarihi
D00000588#OF00000007#10009#Alanın degeri bos yada yanlış :Fatura Tarihi
D00000589#OF00000009#10009#Alanın degeri bos yada yanlış :Fatura Tarihi
D00000590#OF00000011#10009#Alanın degeri bos yada yanlış :Fatura Tarihi
D00000591#OF00000030#10009#Alanın degeri bos yada yanlış :Fatura Tarihi
D00000592#OF00000041#10009#Alanın degeri bos yada yanlış :Fatura Tarihi
D00000593#OF00000042#10009#Alanın degeri bos yada yanlış :Fatura Tarihi
D00000594#OF00000246#10009#Alanın degeri bos yada yanlış :Fatura Tarihi
D00000595#OF00000569#10009#Alanın degeri bos yada yanlış :Fatura Tarihi
D00000596#OF00000601#10009#Alanın degeri bos yada yanlış :Fatura Tarihi
D00000597#OF00000615#10009#Alanın degeri bos yada yanlış :Fatura Tarihi
D00000598#OF00000621#10009#Alanın degeri bos yada yanlış :Fatura Tarihi
D00000599#OF00000966#10009#Alanın degeri bos yada yanlış :Fatura Tarihi
D00000600#OF00001010#10009#Alanın degeri bos yada yanlış :Fatura Tarihi
D00000601#OF00001011#10009#Alanın degeri bos yada yanlış :Fatura Tarihi
D00000602#OF00001012#10009#Alanın degeri bos yada yanlış :Fatura Tarihi
D00000603#OF00001013#10009#Alanın degeri bos yada yanlış :Fatura Tarihi
D00000604#OF00001014#10009#Alanın degeri bos yada yanlış :Fatura Tarihi
D00000605#OF00001015#10009#Alanın degeri bos yada yanlış :Fatura Tarihi
D00000606#OF00001016#10009#Alanın degeri bos yada yanlış :Fatura Tarihi
D00000607#OF00001017#10009#Alanın degeri bos yada yanlış :Fatura Tarihi
D00000608#OF00001018#10009#Alanın degeri bos yada yanlış :Fatura Tarihi
D00000609#OF00001019#10009#Alanın degeri bos yada yanlış :Fatura Tarihi
D00000610#OF00001020#10009#Alanın degeri bos yada yanlış :Fatura Tarihi
D00000611#OF00001021#10009#Alanın degeri bos yada yanlış :Fatura Tarihi
D00000612#OF00001022#10009#Alanın degeri bos yada yanlış :Fatura Tarihi
D00000613#OF00001023#10009#Alanın degeri bos yada yanlış :Fatura Tarihi
D00000614#OF00001024#10009#Alanın degeri bos yada yanlış :Fatura Tarihi
D00000615#OF00001025#10009#Alanın degeri bos yada yanlış :Fatura Tarihi
D00000616#OF00001026#10009#Alanın degeri bos yada yanlış :Fatura Tarihi
D00000617#OF00001027#10009#Alanın degeri bos yada yanlış :Fatura Tarihi
D00000618#OF00001028#10009#Alanın degeri bos yada yanlış :Fatura Tarihi
D00000619#OF00001029#10009#Alanın degeri bos yada yanlış :Fatura Tarihi
D00000620#OF00001030#10009#Alanın degeri bos yada yanlış :Fatura Tarihi
D00000621#OF00001031#10009#Alanın degeri bos yada yanlış :Fatura Tarihi
D00000622#OF00001032#10009#Alanın degeri bos yada yanlış :Fatura Tarihi
D00000623#OF00001033#10009#Alanın degeri bos yada yanlış :Fatura Tarihi
D00000624#OF00001034#10009#Alanın degeri bos yada yanlış :Fatura Tarihi
D00000625#OF00001035#10009#Alanın degeri bos yada yanlış :Fatura Tarihi
D00000626#OF00000016#10009#Alanın degeri bos yada yanlış :Fatura Tarihi
D00000627#OF00000017#10067#Hatalı Alan Uzunluğu :YOKC Il Kodu
D00000628#OF00000019#10009#Alanın degeri bos yada yanlış :Fatura Tarihi
D00000629#OF00000020#10009#Alanın degeri bos yada yanlış :Fatura Tarihi
D00000630#OF00000054#10009#Alanın degeri bos yada yanlış :Fatura Tarihi
D00000631#OF00000013#10067#Hatalı Alan Uzunluğu :YOKC Il Kodu
D00000632#OF00000014#10067#Hatalı Alan Uzunluğu :YOKC Il Kodu
D00000633#OF00000049#10067#Hatalı Alan Uzunluğu :YOKC Il Kodu
D00000634#OF00000057#10067#Hatalı Alan Uzunluğu :YOKC Il Kodu
D00000635#OF00000062#10067#Hatalı Alan Uzunluğu :YOKC Il Kodu
D00000636#OF00000065#10067#Hatalı Alan Uzunluğu :YOKC Il Kodu
D00000637#OF00000070#10067#Hatalı Alan Uzunluğu :YOKC Il Kodu
D00000638#OF00000094#10067#Hatalı Alan Uzunluğu :YOKC Il Kodu
D00000639#OF00000098#10067#Hatalı Alan Uzunluğu :YOKC Il Kodu
D00000640#OF00000103#10067#Hatalı Alan Uzunluğu :YOKC Il Kodu
D00000641#OF00000163#10009#Alanın degeri bos yada yanlış :Fatura Tarihi
D00000642#OF00000180#10009#Alanın degeri bos yada yanlış :Fatura Tarihi
D00000643#OF00000220#10009#Alanın degeri bos yada yanlış :Fatura Tarihi
D00000644#OF00000226#10009#Alanın degeri bos yada yanlış :Fatura Tarihi
D00000645#OF00000258#10009#Alanın degeri bos yada yanlış :Fatura Tarihi
D00000646#OF00000262#10009#Alanın degeri bos yada yanlış :Fatura Tarihi
D00000647#OF00000267#10009#Alanın degeri bos yada yanlış :Fatura Tarihi
D00000648#OF00000271#10009#Alanın degeri bos yada yanlış :Fatura Tarihi
D00000649#OF00000273#10009#Alanın degeri bos yada yanlış :Fatura Tarihi
D00000650#OF00000274#10009#Alanın degeri bos yada yanlış :Fatura Tarihi
D00000651#OF00000275#10009#Alanın degeri bos yada yanlış :Fatura Tarihi
D00000652#OF00000278#10009#Alanın degeri bos yada yanlış :Fatura Tarihi
D00000653#OF00000284#10009#Alanın degeri bos yada yanlış :Fatura Tarihi
D00000654#OF00000287#10009#Alanın degeri bos yada yanlış :Fatura Tarihi
D00000655#OF00000290#10009#Alanın degeri bos yada yanlış :Fatura Tarihi
D00000656#OF00000297#10009#Alanın degeri bos yada yanlış :Fatura Tarihi
D00000657#OF00000298#10009#Alanın degeri bos yada yanlış :Fatura Tarihi
D00000658#OF00000301#10009#Alanın degeri bos yada yanlış :Fatura Tarihi
D00000659#OF00000961#10009#Alanın degeri bos yada yanlış :Fatura Tarihi
D00000660#OF00000962#10009#Alanın degeri bos yada yanlış :Fatura Tarihi
D00000661#OF00000963#10009#Alanın degeri bos yada yanlış :Fatura Tarihi
D00000662#OF00000964#10009#Alanın degeri bos yada yanlış :Fatura Tarihi
D00000663#OF00000965#10009#Alanın degeri bos yada yanlış :Fatura Tarihi
D00000664#OF00000967#10009#Alanın degeri bos yada yanlış :Fatura Tarihi
D00000665#OF00000968#10009#Alanın degeri bos yada yanlış :Fatura Tarihi
D00000666#OF00000969#10009#Alanın degeri bos yada yanlış :Fatura Tarihi
D00000667#OF00000970#10009#Alanın degeri bos yada yanlış :Fatura Tarihi
D00000668#OF00000971#10009#Alanın degeri bos yada yanlış :Fatura Tarihi
D00000669#OF00000972#10009#Alanın degeri bos yada yanlış :Fatura Tarihi
D00000670#OF00000973#10009#Alanın degeri bos yada yanlış :Fatura Tarihi
D00000671#OF00000974#10009#Alanın degeri bos yada yanlış :Fatura Tarihi
D00000672#OF00000975#10009#Alanın degeri bos yada yanlış :Fatura Tarihi
D00000673#OF00000976#10009#Alanın degeri bos yada yanlış :Fatura Tarihi
D00000674#OF00000977#10009#Alanın degeri bos yada yanlış :Fatura Tarihi
D00000675#OF00000978#10009#Alanın degeri bos yada yanlış :Fatura Tarihi
D00000676#OF00000979#10009#Alanın degeri bos yada yanlış :Fatura Tarihi
D00000677#OF00000980#10009#Alanın degeri bos yada yanlış :Fatura Tarihi
D00000678#OF00000981#10009#Alanın degeri bos yada yanlış :Fatura Tarihi
D00000679#OF00000982#10009#Alanın degeri bos yada yanlış :Fatura Tarihi
D00000680#OF00000983#10009#Alanın degeri bos yada yanlış :Fatura Tarihi
D00000681#OF00000984#10009#Alanın degeri bos yada yanlış :Fatura Tarihi
D00000682#OF00000985#10009#Alanın degeri bos yada yanlış :Fatura Tarihi
D00000683#OF00000986#10009#Alanın degeri bos yada yanlış :Fatura Tarihi
D00000684#OF00000987#10009#Alanın degeri bos yada yanlış :Fatura Tarihi
D00000685#OF00000988#10009#Alanın degeri bos yada yanlış :Fatura Tarihi
D00000686#OF00000989#10009#Alanın degeri bos yada yanlış :Fatura Tarihi
D00000687#OF00000990#10009#Alanın degeri bos yada yanlış :Fatura Tarihi
D00000688#OF00000991#10009#Alanın degeri bos yada yanlış :Fatura Tarihi
D00000689#OF00000992#10009#Alanın degeri bos yada yanlış :Fatura Tarihi
D00000690#OF00000993#10009#Alanın degeri bos yada yanlış :Fatura Tarihi
D00000691#OF00000994#10009#Alanın degeri bos yada yanlış :Fatura Tarihi
D00000692#OF00000995#10009#Alanın degeri bos yada yanlış :Fatura Tarihi
D00000693#OF00000996#10009#Alanın degeri bos yada yanlış :Fatura Tarihi
D00000694#OF00000997#10009#Alanın degeri bos yada yanlış :Fatura Tarihi
D00000695#OF00000998#10009#Alanın degeri bos yada yanlış :Fatura Tarihi
D00000696#OF00000999#10009#Alanın degeri bos yada yanlış :Fatura Tarihi
D00000697#OF00001000#10009#Alanın degeri bos yada yanlış :Fatura Tarihi
D00000698#OF00001001#10009#Alanın degeri bos yada yanlış :Fatura Tarihi
D00000699#OF00001002#10009#Alanın degeri bos yada yanlış :Fatura Tarihi
D00000700#OF00001003#10009#Alanın degeri bos yada yanlış :Fatura Tarihi
D00000701#OF00001004#10009#Alanın degeri bos yada yanlış :Fatura Tarihi
D00000702#OF00001005#10009#Alanın degeri bos yada yanlış :Fatura Tarihi
D00000703#OF00001006#10009#Alanın degeri bos yada yanlış :Fatura Tarihi
D00000704#OF00001007#10009#Alanın degeri bos yada yanlış :Fatura Tarihi
D00000705#OF00001008#10009#Alanın degeri bos yada yanlış :Fatura Tarihi
D00000706#OF00001009#10009#Alanın degeri bos yada yanlış :Fatura Tarihi
D00000707#OF00000061#10067#Hatalı Alan Uzunluğu :YOKC Il Kodu
D00000708#OF00000314#10009#Alanın degeri bos yada yanlış :Fatura Seri No
D00000709#OF00000323#10009#Alanın degeri bos yada yanlış :Fatura Seri No
D00000710#OF00000324#10009#Alanın degeri bos yada yanlış :Fatura Seri No
D00000711#OF00000327#10009#Alanın degeri bos yada yanlış :Fatura Seri No
D00000712#OF00000329#10009#Alanın degeri bos yada yanlış :Fatura Seri No
D00000713#OF00000332#10009#Alanın degeri bos yada yanlış :Fatura Seri No
D00000714#OF00000335#10009#Alanın degeri bos yada yanlış :Fatura Seri No
D00000715#OF00000338#10009#Alanın degeri bos yada yanlış :Fatura Seri No
D00000716#OF00000339#10009#Alanın degeri bos yada yanlış :Fatura Seri No
D00000717#OF00000340#10009#Alanın degeri bos yada yanlış :Fatura Seri No
D00000718#OF00000343#10009#Alanın degeri bos yada yanlış :Fatura Seri No
D00000719#OF00000345#10009#Alanın degeri bos yada yanlış :Fatura Seri No
D00000720#OF00000354#10009#Alanın degeri bos yada yanlış :Fatura Seri No
D00000721#OF00000355#10009#Alanın degeri bos yada yanlış :Fatura Seri No
D00000722#OF00000361#10009#Alanın degeri bos yada yanlış :Fatura Seri No
D00000723#OF00000368#10009#Alanın degeri bos yada yanlış :Fatura Seri No
D00000724#OF00000393#10009#Alanın degeri bos yada yanlış :Fatura Seri No
D00000725#OF00000402#10009#Alanın degeri bos yada yanlış :Fatura Seri No
D00000726#OF00000403#10009#Alanın degeri bos yada yanlış :Fatura Seri No
D00000727#OF00000413#10009#Alanın degeri bos yada yanlış :Fatura Seri No
D00000728#OF00000414#10009#Alanın degeri bos yada yanlış :Fatura Seri No
D00000729#OF00000421#10009#Alanın degeri bos yada yanlış :Fatura Seri No
D00000730#OF00000422#10009#Alanın degeri bos yada yanlış :Fatura Seri No
D00000731#OF00000459#10009#Alanın degeri bos yada yanlış :Fatura Seri No
D00000732#OF00000467#10009#Alanın degeri bos yada yanlış :Fatura Seri No
D00000733#OF00000468#10009#Alanın degeri bos yada yanlış :Fatura Seri No
D00000734#OF00000473#10009#Alanın degeri bos yada yanlış :Fatura Seri No
D00000735#OF00000477#10009#Alanın degeri bos yada yanlış :Fatura Seri No
D00000736#OF00000040#10009#Alanın degeri bos yada yanlış :Fatura Seri No
D00000737#OF00000036#10009#Alanın degeri bos yada yanlış :Fatura Seri No
D00000738#OF00000144#10009#Alanın degeri bos yada yanlış :Fatura Seri No
D00000739#OF00000249#10009#Alanın degeri bos yada yanlış :Fatura Seri No
D00000740#OF00000251#10009#Alanın degeri bos yada yanlış :Fatura Seri No
D00000741#OF00000400#10009#Alanın degeri bos yada yanlış :Fatura Seri No
D00000742#OF00000406#10009#Alanın degeri bos yada yanlış :Fatura Seri No
D00000743#OF00000423#10009#Alanın degeri bos yada yanlış :Fatura Seri No
D00000744#OF00000481#10009#Alanın degeri bos yada yanlış :Fatura Seri No
D00000745#OF00000482#10009#Alanın degeri bos yada yanlış :Fatura Seri No
D00000746#OF00000484#10009#Alanın degeri bos yada yanlış :Fatura Seri No
D00000747#OF00000486#10009#Alanın degeri bos yada yanlış :Fatura Seri No
D00000748#OF00000487#10009#Alanın degeri bos yada yanlış :Fatura Seri No
D00000749#OF00000718#10009#Alanın degeri bos yada yanlış :Fatura Seri No
D00000750#OF00000721#10067#Hatalı Alan Uzunluğu :YOKC Il Kodu
D00000751#OF00000725#10009#Alanın degeri bos yada yanlış :Fatura Seri No
D00000752#OF00000726#10009#Alanın degeri bos yada yanlış :Fatura Seri No
D00000753#OF00000732#10009#Alanın degeri bos yada yanlış :Fatura Seri No
D00000754#OF00000733#10009#Alanın degeri bos yada yanlış :Fatura Seri No
D00000755#OF00000739#10009#Alanın degeri bos yada yanlış :Fatura Seri No
D00000756#OF00000741#10009#Alanın degeri bos yada yanlış :Fatura Seri No
D00000757#OF00000758#10009#Alanın degeri bos yada yanlış :Fatura Seri No
D00000758#OF00000762#10009#Alanın degeri bos yada yanlış :Fatura Seri No
D00000759#OF00000764#10009#Alanın degeri bos yada yanlış :Fatura Seri No
D00000760#OF00000771#10009#Alanın degeri bos yada yanlış :Fatura Seri No
D00000761#OF00000785#10009#Alanın degeri bos yada yanlış :Fatura Seri No
D00000762#OF00000790#10009#Alanın degeri bos yada yanlış :Fatura Seri No
D00000763#OF00000795#10009#Alanın degeri bos yada yanlış :Fatura Seri No
D00000764#OF00000731#10067#Hatalı Alan Uzunluğu :YOKC Il Kodu
D00000765#OF00000734#10009#Alanın degeri bos yada yanlış :Fatura Seri No
D00000766#OF00000740#10009#Alanın degeri bos yada yanlış :Fatura Seri No
D00000767#OF00000743#10009#Alanın degeri bos yada yanlış :Fatura Seri No
D00000768#OF00000783#10009#Alanın degeri bos yada yanlış :Fatura Seri No
D00000769#OF00000813#10009#Alanın degeri bos yada yanlış :Fatura Seri No
D00000770#OF00000817#10009#Alanın degeri bos yada yanlış :Fatura Seri No
D00000771#OF00000824#10067#Hatalı Alan Uzunluğu :YOKC Il Kodu
D00000772#OF00000846#10009#Alanın degeri bos yada yanlış :Fatura Seri No
D00000773#OF00000858#10009#Alanın degeri bos yada yanlış :Fatura Seri No
D00000774#OF00000863#10009#Alanın degeri bos yada yanlış :Fatura Seri No
D00000775#OF00000866#10067#Hatalı Alan Uzunluğu :YOKC Il Kodu
D00000776#OF00000867#10009#Alanın degeri bos yada yanlış :Fatura Seri No
D00000777#OF00000868#10009#Alanın degeri bos yada yanlış :Fatura Seri No
D00000778#OF00000872#10009#Alanın degeri bos yada yanlış :Fatura Seri No
D00000779#OF00000877#10009#Alanın degeri bos yada yanlış :Fatura Seri No
D00000780#OF00000878#10009#Alanın degeri bos yada yanlış :Fatura Seri No
D00000781#OF00000879#10009#Alanın degeri bos yada yanlış :Fatura Tarihi
D00000782#OF00000885#10009#Alanın degeri bos yada yanlış :Fatura Seri No
D00000783#OF00000886#10009#Alanın degeri bos yada yanlış :Fatura Seri No
D00000784#OF00000890#10009#Alanın degeri bos yada yanlış :Fatura Seri No
D00000785#OF00000891#10009#Alanın degeri bos yada yanlış :Fatura Seri No
D00000786#OF00000896#10009#Alanın degeri bos yada yanlış :Fatura Seri No
D00000787#OF00000897#10067#Hatalı Alan Uzunluğu :YOKC Il Kodu
D00000788#OF00000910#10009#Alanın degeri bos yada yanlış :Fatura Seri No
D00000789#OF00000949#10067#Hatalı Alan Uzunluğu :YOKC Il Kodu
D00000790#OF00001042#10067#Hatalı Alan Uzunluğu :YOKC Il Kodu
D00000791#OF00001079#10009#Alanın degeri bos yada yanlış :Fatura Seri No
D00000792#OF00001081#10067#Hatalı Alan Uzunluğu :YOKC Il Kodu
D00000793#OF00001102#10009#Alanın degeri bos yada yanlış :Fatura Seri No
D00000794#OF00001103#10009#Alanın degeri bos yada yanlış :Fatura Seri No
D00000795#OF00001104#10009#Alanın degeri bos yada yanlış :Fatura Seri No
D00000796#OF00001110#10009#Alanın degeri bos yada yanlış :Fatura Seri No
D00000797#OF00001140#10067#Hatalı Alan Uzunluğu :YOKC Il Kodu
D00000798#OF00001158#10009#Alanın degeri bos yada yanlış :Fatura Seri No
D00000799#OF00001159#10009#Alanın degeri bos yada yanlış :Fatura Seri No
D00000800#OF00001160#10009#Alanın degeri bos yada yanlış :Fatura Seri No
D00000801#OF00001161#10009#Alanın degeri bos yada yanlış :Fatura Seri No
D00000802#OF00001162#10009#Alanın degeri bos yada yanlış :Fatura Seri No
D00000803#OF00001163#10009#Alanın degeri bos yada yanlış :Fatura Seri No
D00000804#OF00001165#10009#Alanın degeri bos yada yanlış :Fatura Seri No
D00000805#OF00001166#10009#Alanın degeri bos yada yanlış :Fatura Seri No
D00000806#OF00001167#10009#Alanın degeri bos yada yanlış :Fatura Seri No
D00000807#OF00001170#10009#Alanın degeri bos yada yanlış :Fatura Seri No
D00000808#OF00001171#10009#Alanın degeri bos yada yanlış :Fatura Seri No
D00000809#OF00001185#10009#Alanın degeri bos yada yanlış :Fatura Seri No
D00000810#OF00000205#10009#Alanın degeri bos yada yanlış :Fatura Seri No
D00000811#OF00000223#10009#Alanın degeri bos yada yanlış :Fatura Seri No
D00000812#OF00000224#10009#Alanın degeri bos yada yanlış :Fatura Seri No
D00000813#OF00000005#10067#Hatalı Alan Uzunluğu :YOKC Il Kodu
D00000814#OF00000880#10009#Alanın degeri bos yada yanlış :Fatura Seri No
D00000815#OF00000189#10009#Alanın degeri bos yada yanlış :Fatura Seri No
D00000816#OF00000187#10009#Alanın degeri bos yada yanlış :Fatura Seri No
D00000817#OF00000172#10009#Alanın degeri bos yada yanlış :Fatura Tarihi
D00000818#OF00000182#10009#Alanın degeri bos yada yanlış :Fatura Seri No
D00000819#OF00000154#10009#Alanın degeri bos yada yanlış :Fatura Tarihi
D00000820#OF00000488#10009#Alanın degeri bos yada yanlış :Fatura Seri No
D00000821#OF00000957#10009#Alanın degeri bos yada yanlış :Fatura Seri No
D00000822#OF00000958#10009#Alanın degeri bos yada yanlış :Fatura Seri No
D00000823#OF00001037#10067#Hatalı Alan Uzunluğu :YOKC Il Kodu
D00000824#OF00001183#10067#Hatalı Alan Uzunluğu :YOKC Il Kodu
D00000825#OF00001164#10009#Alanın degeri bos yada yanlış :Fatura Seri No
D00000826#OF00001122#10067#Hatalı Alan Uzunluğu :YOKC Il Kodu
D00000827#OF00000529#10067#Hatalı Alan Uzunluğu :YOKC Il Kodu
D00000828#OF00000629#10009#Alanın degeri bos yada yanlış :Fatura Seri No
D00000829#OF00000907#10067#Hatalı Alan Uzunluğu :YOKC Il Kodu
D00000830#OF00000815#10067#Hatalı Alan Uzunluğu :YOKC Il Kodu
D00000831#OF00000401#10009#Alanın degeri bos yada yanlış :Fatura Seri No
D00000832#OF00000536#10009#Alanın degeri bos yada yanlış :Fatura Seri No
D00000833#OF00000630#10009#Alanın degeri bos yada yanlış :Fatura Seri No
D00000834#OF00001101#10067#Hatalı Alan Uzunluğu :YOKC Il Kodu
D00000835#OF00000097#10009#Alanın degeri bos yada yanlış :Fatura Seri No
D00000836#OF00000121#10067#Hatalı Alan Uzunluğu :YOKC Il Kodu
D00000837#OF00000132#10067#Hatalı Alan Uzunluğu :YOKC Il Kodu
D00000838#OF00000141#10067#Hatalı Alan Uzunluğu :YOKC Il Kodu
D00000839#OF00001090#10009#Alanın degeri bos yada yanlış :Fatura Seri No
D00000840#OF00000316#10009#Alanın degeri bos yada yanlış :Fatura Seri No
D00000841#OF00000318#10009#Alanın degeri bos yada yanlış :Fatura Seri No
D00000842#OF00000326#10009#Alanın degeri bos yada yanlış :Fatura Seri No
D00000843#OF00000331#10009#Alanın degeri bos yada yanlış :Fatura Seri No
D00000844#OF00000503#10009#Alanın degeri bos yada yanlış :Fatura Seri No
D00000845#OF00000513#10009#Alanın degeri bos yada yanlış :Fatura Seri No
D00000846#OF00000514#10009#Alanın degeri bos yada yanlış :Fatura Seri No
D00000847#OF00000517#10009#Alanın degeri bos yada yanlış :Fatura Seri No
D00000848#OF00000530#10009#Alanın degeri bos yada yanlış :Fatura Seri No
D00000849#OF00000535#10009#Alanın degeri bos yada yanlış :Fatura Seri No
D00000850#OF00000541#10009#Alanın degeri bos yada yanlış :Fatura Seri No
D00000851#OF00000542#10009#Alanın degeri bos yada yanlış :Fatura Seri No
D00000852#OF00000543#10009#Alanın degeri bos yada yanlış :Fatura Seri No
D00000853#OF00000548#10009#Alanın degeri bos yada yanlış :Fatura Seri No
D00000854#OF00000568#10009#Alanın degeri bos yada yanlış :Fatura Seri No
D00000855#OF00000572#10009#Alanın degeri bos yada yanlış :Fatura Seri No
D00000856#OF00000577#10009#Alanın degeri bos yada yanlış :Fatura Seri No
D00000857#OF00000581#10009#Alanın degeri bos yada yanlış :Fatura Seri No
D00000858#OF00000595#10009#Alanın degeri bos yada yanlış :Fatura Seri No
D00000859#OF00000597#10009#Alanın degeri bos yada yanlış :Fatura Seri No
D00000860#OF00000602#10009#Alanın degeri bos yada yanlış :Fatura Seri No
D00000861#OF00000607#10009#Alanın degeri bos yada yanlış :Fatura Seri No
D00000862#OF00000608#10009#Alanın degeri bos yada yanlış :Fatura Seri No
D00000863#OF00000612#10009#Alanın degeri bos yada yanlış :Fatura Seri No
D00000864#OF00000623#10009#Alanın degeri bos yada yanlış :Fatura Seri No
D00000865#OF00000888#10009#Alanın degeri bos yada yanlış :Fatura Seri No
D00000866#OF00000814#10009#Alanın degeri bos yada yanlış :Fatura Seri No
D00000867#OF00000631#10009#Alanın degeri bos yada yanlış :Fatura Seri No
D00000868#OF00000723#10009#Alanın degeri bos yada yanlış :Fatura Seri No
D00000869#OF00000728#10009#Alanın degeri bos yada yanlış :Fatura Seri No
D00000870#OF00000745#10009#Alanın degeri bos yada yanlış :Fatura Seri No
D00000871#OF00000782#10009#Alanın degeri bos yada yanlış :Fatura Seri No
D00000872#OF00000810#10009#Alanın degeri bos yada yanlış :Fatura Seri No
D00000873#OF00000913#10009#Alanın degeri bos yada yanlış :Fatura Seri No
D00000874#OF00001082#10009#Alanın degeri bos yada yanlış :Fatura Seri No
D00000875#OF00001083#10009#Alanın degeri bos yada yanlış :Fatura Seri No
D00000876#OF00001084#10009#Alanın degeri bos yada yanlış :Fatura Seri No
D00000877#OF00001100#10009#Alanın degeri bos yada yanlış :Fatura Seri No
D00000878#OF00001177#10009#Alanın degeri bos yada yanlış :Fatura Seri No
D00000879#OF00001179#10009#Alanın degeri bos yada yanlış :Fatura Seri No
D00000880#OF00000613#10009#Alanın degeri bos yada yanlış :Fatura Tarihi
D00000881#OF00000609#10009#Alanın degeri bos yada yanlış :Fatura Seri No
D00000882#OF00000624#10009#Alanın degeri bos yada yanlış :Fatura Seri No
D00000883#OF00000589#10009#Alanın degeri bos yada yanlış :Fatura Seri No
D00000884#OF00000508#10009#Alanın degeri bos yada yanlış :Fatura Seri No
D00000885#OF00000520#10067#Hatalı Alan Uzunluğu :YOKC Il Kodu
D00000886#OF00000500#10067#Hatalı Alan Uzunluğu :YOKC Il Kodu
D00000887#OF00000625#10067#Hatalı Alan Uzunluğu :YOKC Il Kodu
D00000888#OF00000600#10067#Hatalı Alan Uzunluğu :YOKC Il Kodu
D00000889#OF00000619#10067#Hatalı Alan Uzunluğu :YOKC Il Kodu
D00000890#OF00000628#10009#Alanın degeri bos yada yanlış :Fatura Seri No
D00000891#OF00000636#10067#Hatalı Alan Uzunluğu :YOKC Il Kodu
D00000892#OF00000640#10067#Hatalı Alan Uzunluğu :YOKC Il Kodu
D00000893#OF00000635#10067#Hatalı Alan Uzunluğu :YOKC Il Kodu
D00000894#OF00001180#10067#Hatalı Alan Uzunluğu :YOKC Il Kodu
D00000895#OF00001181#10009#Alanın degeri bos yada yanlış :Fatura Seri No
D00000896#OF00000950#10009#Alanın degeri bos yada yanlış :Fatura Seri No
D00000897#OF00000788#10067#Hatalı Alan Uzunluğu :YOKC Il Kodu
D00000898#OF00000364#10067#Hatalı Alan Uzunluğu :YOKC Il Kodu
D00000899#OF00000691#10067#Hatalı Alan Uzunluğu :YOKC Il Kodu
D00000900#OF00000923#10067#Hatalı Alan Uzunluğu :YOKC Il Kodu
D00000901#OF00001088#10067#Hatalı Alan Uzunluğu :YOKC Il Kodu
D00000902#OF00001089#10067#Hatalı Alan Uzunluğu :YOKC Il Kodu
D00000903#OF00000862#10067#Hatalı Alan Uzunluğu :YOKC Il Kodu
D00000904#OF00000592#10067#Hatalı Alan Uzunluğu :YOKC Il Kodu
D00000905#OF00000524#10067#Hatalı Alan Uzunluğu :YOKC Il Kodu
D00000906#OF00000522#10067#Hatalı Alan Uzunluğu :YOKC Il Kodu
D00000907#OF00000540#10067#Hatalı Alan Uzunluğu :YOKC Il Kodu
D00000908#OF00000553#10067#Hatalı Alan Uzunluğu :YOKC Il Kodu
D00000909#OF00000924#10067#Hatalı Alan Uzunluğu :YOKC Il Kodu
D00000910#OF00001176#10067#Hatalı Alan Uzunluğu :YOKC Il Kodu
D00000911#OF00000873#10067#Hatalı Alan Uzunluğu :YOKC Il Kodu
D00000912#OF00000875#10067#Hatalı Alan Uzunluğu :YOKC Il Kodu
D00000913#OF00000876#10067#Hatalı Alan Uzunluğu :YOKC Il Kodu
D00000914#OF00000881#10067#Hatalı Alan Uzunluğu :YOKC Il Kodu
D00000915#OF00000884#10067#Hatalı Alan Uzunluğu :YOKC Il Kodu
D00000916#OF00000887#10067#Hatalı Alan Uzunluğu :YOKC Il Kodu
D00000917#OF00000889#10067#Hatalı Alan Uzunluğu :YOKC Il Kodu
D00000918#OF00000893#10067#Hatalı Alan Uzunluğu :YOKC Il Kodu
D00000919#OF00000894#10067#Hatalı Alan Uzunluğu :YOKC Il Kodu
D00000920#OF00000895#10067#Hatalı Alan Uzunluğu :YOKC Il Kodu
D00000921#OF00000899#10067#Hatalı Alan Uzunluğu :YOKC Il Kodu
D00000922#OF00000902#10067#Hatalı Alan Uzunluğu :YOKC Il Kodu
D00000923#OF00000904#10067#Hatalı Alan Uzunluğu :YOKC Il Kodu
D00000924#OF00000906#10067#Hatalı Alan Uzunluğu :YOKC Il Kodu
D00000925#OF00000920#10067#Hatalı Alan Uzunluğu :YOKC Il Kodu
D00000926#OF00000916#10067#Hatalı Alan Uzunluğu :YOKC Il Kodu
D00000927#OF00000914#10067#Hatalı Alan Uzunluğu :YOKC Il Kodu
D00000928#OF00000325#10067#Hatalı Alan Uzunluğu :YOKC Il Kodu
D00000929#OF00000328#10067#Hatalı Alan Uzunluğu :YOKC Il Kodu
D00000930#OF00000330#10067#Hatalı Alan Uzunluğu :YOKC Il Kodu
D00000931#OF00000333#10067#Hatalı Alan Uzunluğu :YOKC Il Kodu
D00000932#OF00000336#10067#Hatalı Alan Uzunluğu :YOKC Il Kodu
D00000933#OF00000341#10067#Hatalı Alan Uzunluğu :YOKC Il Kodu
D00000934#OF00000342#10067#Hatalı Alan Uzunluğu :YOKC Il Kodu
D00000935#OF00000344#10067#Hatalı Alan Uzunluğu :YOKC Il Kodu
D00000936#OF00000346#10067#Hatalı Alan Uzunluğu :YOKC Il Kodu
D00000937#OF00000347#10067#Hatalı Alan Uzunluğu :YOKC Il Kodu
D00000938#OF00000516#10067#Hatalı Alan Uzunluğu :YOKC Il Kodu
D00000939#OF00000521#10067#Hatalı Alan Uzunluğu :YOKC Il Kodu
D00000940#OF00000523#10067#Hatalı Alan Uzunluğu :YOKC Il Kodu
D00000941#OF00000528#10067#Hatalı Alan Uzunluğu :YOKC Il Kodu
D00000942#OF00000532#10067#Hatalı Alan Uzunluğu :YOKC Il Kodu
D00000943#OF00000534#10067#Hatalı Alan Uzunluğu :YOKC Il Kodu
D00000944#OF00000537#10067#Hatalı Alan Uzunluğu :YOKC Il Kodu
D00000945#OF00000538#10067#Hatalı Alan Uzunluğu :YOKC Il Kodu
D00000946#OF00000539#10067#Hatalı Alan Uzunluğu :YOKC Il Kodu
D00000947#OF00000755#10067#Hatalı Alan Uzunluğu :YOKC Il Kodu
D00000948#OF00000757#10067#Hatalı Alan Uzunluğu :YOKC Il Kodu
D00000949#OF00000759#10067#Hatalı Alan Uzunluğu :YOKC Il Kodu
D00000950#OF00000763#10067#Hatalı Alan Uzunluğu :YOKC Il Kodu
D00000951#OF00000765#10067#Hatalı Alan Uzunluğu :YOKC Il Kodu
D00000952#OF00000770#10067#Hatalı Alan Uzunluğu :YOKC Il Kodu
D00000953#OF00000776#10067#Hatalı Alan Uzunluğu :YOKC Il Kodu
D00000954#OF00000777#10067#Hatalı Alan Uzunluğu :YOKC Il Kodu
D00000955#OF00000778#10067#Hatalı Alan Uzunluğu :YOKC Il Kodu
D00000956#OF00000791#10067#Hatalı Alan Uzunluğu :YOKC Il Kodu
D00000957#OF00000917#10067#Hatalı Alan Uzunluğu :YOKC Il Kodu
D00000958#OF00000309#10067#Hatalı Alan Uzunluğu :YOKC Il Kodu
D00000959#OF00000310#10067#Hatalı Alan Uzunluğu :YOKC Il Kodu
D00000960#OF00000311#10067#Hatalı Alan Uzunluğu :YOKC Il Kodu
D00000961#OF00000312#10067#Hatalı Alan Uzunluğu :YOKC Il Kodu
D00000962#OF00000313#10067#Hatalı Alan Uzunluğu :YOKC Il Kodu
D00000963#OF00000315#10067#Hatalı Alan Uzunluğu :YOKC Il Kodu
D00000964#OF00000317#10067#Hatalı Alan Uzunluğu :YOKC Il Kodu
D00000965#OF00000319#10067#Hatalı Alan Uzunluğu :YOKC Il Kodu
D00000966#OF00000320#10067#Hatalı Alan Uzunluğu :YOKC Il Kodu
D00000967#OF00000321#10067#Hatalı Alan Uzunluğu :YOKC Il Kodu
D00000968#OF00000348#10067#Hatalı Alan Uzunluğu :YOKC Il Kodu
D00000969#OF00000349#10067#Hatalı Alan Uzunluğu :YOKC Il Kodu
D00000970#OF00000356#10067#Hatalı Alan Uzunluğu :YOKC Il Kodu
D00000971#OF00000358#10067#Hatalı Alan Uzunluğu :YOKC Il Kodu
D00000972#OF00000359#10067#Hatalı Alan Uzunluğu :YOKC Il Kodu
D00000973#OF00000362#10067#Hatalı Alan Uzunluğu :YOKC Il Kodu
D00000974#OF00000363#10067#Hatalı Alan Uzunluğu :YOKC Il Kodu
D00000975#OF00000369#10067#Hatalı Alan Uzunluğu :YOKC Il Kodu
D00000976#OF00000370#10067#Hatalı Alan Uzunluğu :YOKC Il Kodu
D00000977#OF00000394#10067#Hatalı Alan Uzunluğu :YOKC Il Kodu
D00000978#OF00000398#10067#Hatalı Alan Uzunluğu :YOKC Il Kodu
D00000979#OF00000404#10067#Hatalı Alan Uzunluğu :YOKC Il Kodu
D00000980#OF00000405#10067#Hatalı Alan Uzunluğu :YOKC Il Kodu
D00000981#OF00000407#10067#Hatalı Alan Uzunluğu :YOKC Il Kodu
D00000982#OF00000408#10067#Hatalı Alan Uzunluğu :YOKC Il Kodu
D00000983#OF00000409#10067#Hatalı Alan Uzunluğu :YOKC Il Kodu
D00000984#OF00000410#10067#Hatalı Alan Uzunluğu :YOKC Il Kodu
D00000985#OF00000411#10067#Hatalı Alan Uzunluğu :YOKC Il Kodu
D00000986#OF00000463#10067#Hatalı Alan Uzunluğu :YOKC Il Kodu
D00000987#OF00000476#10067#Hatalı Alan Uzunluğu :YOKC Il Kodu
D00000988#OF00000491#10067#Hatalı Alan Uzunluğu :YOKC Il Kodu
D00000989#OF00000492#10067#Hatalı Alan Uzunluğu :YOKC Il Kodu
D00000990#OF00000493#10067#Hatalı Alan Uzunluğu :YOKC Il Kodu
D00000991#OF00000494#10067#Hatalı Alan Uzunluğu :YOKC Il Kodu
D00000992#OF00000495#10067#Hatalı Alan Uzunluğu :YOKC Il Kodu
D00000993#OF00000496#10067#Hatalı Alan Uzunluğu :YOKC Il Kodu
D00000994#OF00000497#10067#Hatalı Alan Uzunluğu :YOKC Il Kodu
D00000995#OF00000498#10067#Hatalı Alan Uzunluğu :YOKC Il Kodu
D00000996#OF00000501#10067#Hatalı Alan Uzunluğu :YOKC Il Kodu
D00000997#OF00000502#10067#Hatalı Alan Uzunluğu :YOKC Il Kodu
D00000998#OF00000504#10067#Hatalı Alan Uzunluğu :YOKC Il Kodu
D00000999#OF00000505#10067#Hatalı Alan Uzunluğu :YOKC Il Kodu
D00001000#OF00000506#10067#Hatalı Alan Uzunluğu :YOKC Il Kodu
D00001001#OF00000507#10067#Hatalı Alan Uzunluğu :YOKC Il Kodu
D00001002#OF00000509#10067#Hatalı Alan Uzunluğu :YOKC Il Kodu
D00001003#OF00000510#10067#Hatalı Alan Uzunluğu :YOKC Il Kodu
D00001004#OF00000515#10067#Hatalı Alan Uzunluğu :YOKC Il Kodu
D00001005#OF00000544#10067#Hatalı Alan Uzunluğu :YOKC Il Kodu
D00001006#OF00000545#10067#Hatalı Alan Uzunluğu :YOKC Il Kodu
D00001007#OF00000546#10067#Hatalı Alan Uzunluğu :YOKC Il Kodu
D00001008#OF00000547#10067#Hatalı Alan Uzunluğu :YOKC Il Kodu
D00001009#OF00000549#10067#Hatalı Alan Uzunluğu :YOKC Il Kodu
D00001010#OF00000550#10067#Hatalı Alan Uzunluğu :YOKC Il Kodu
D00001011#OF00000552#10067#Hatalı Alan Uzunluğu :YOKC Il Kodu
D00001012#OF00000554#10067#Hatalı Alan Uzunluğu :YOKC Il Kodu
D00001013#OF00000557#10067#Hatalı Alan Uzunluğu :YOKC Il Kodu
D00001014#OF00000558#10067#Hatalı Alan Uzunluğu :YOKC Il Kodu
D00001015#OF00000559#10067#Hatalı Alan Uzunluğu :YOKC Il Kodu
D00001016#OF00000560#10067#Hatalı Alan Uzunluğu :YOKC Il Kodu
D00001017#OF00000561#10067#Hatalı Alan Uzunluğu :YOKC Il Kodu
D00001018#OF00000562#10067#Hatalı Alan Uzunluğu :YOKC Il Kodu
D00001019#OF00000564#10067#Hatalı Alan Uzunluğu :YOKC Il Kodu
D00001020#OF00000565#10067#Hatalı Alan Uzunluğu :YOKC Il Kodu
D00001021#OF00000566#10067#Hatalı Alan Uzunluğu :YOKC Il Kodu
D00001022#OF00000567#10067#Hatalı Alan Uzunluğu :YOKC Il Kodu
D00001023#OF00000573#10067#Hatalı Alan Uzunluğu :YOKC Il Kodu
D00001024#OF00000575#10067#Hatalı Alan Uzunluğu :YOKC Il Kodu
D00001025#OF00000576#10067#Hatalı Alan Uzunluğu :YOKC Il Kodu
D00001026#OF00000579#10067#Hatalı Alan Uzunluğu :YOKC Il Kodu
D00001027#OF00000582#10067#Hatalı Alan Uzunluğu :YOKC Il Kodu
D00001028#OF00000583#10067#Hatalı Alan Uzunluğu :YOKC Il Kodu
D00001029#OF00000584#10067#Hatalı Alan Uzunluğu :YOKC Il Kodu
D00001030#OF00000585#10067#Hatalı Alan Uzunluğu :YOKC Il Kodu
D00001031#OF00000586#10067#Hatalı Alan Uzunluğu :YOKC Il Kodu
D00001032#OF00000587#10067#Hatalı Alan Uzunluğu :YOKC Il Kodu
D00001033#OF00000588#10067#Hatalı Alan Uzunluğu :YOKC Il Kodu
D00001034#OF00000590#10067#Hatalı Alan Uzunluğu :YOKC Il Kodu
D00001035#OF00000591#10067#Hatalı Alan Uzunluğu :YOKC Il Kodu
D00001036#OF00000593#10067#Hatalı Alan Uzunluğu :YOKC Il Kodu
D00001037#OF00000594#10067#Hatalı Alan Uzunluğu :YOKC Il Kodu
D00001038#OF00000596#10067#Hatalı Alan Uzunluğu :YOKC Il Kodu
D00001039#OF00000603#10067#Hatalı Alan Uzunluğu :YOKC Il Kodu
D00001040#OF00000604#10067#Hatalı Alan Uzunluğu :YOKC Il Kodu
D00001041#OF00000605#10067#Hatalı Alan Uzunluğu :YOKC Il Kodu
D00001042#OF00000606#10067#Hatalı Alan Uzunluğu :YOKC Il Kodu
D00001043#OF00000610#10067#Hatalı Alan Uzunluğu :YOKC Il Kodu
D00001044#OF00000611#10067#Hatalı Alan Uzunluğu :YOKC Il Kodu
D00001045#OF00000614#10067#Hatalı Alan Uzunluğu :YOKC Il Kodu
D00001046#OF00000617#10067#Hatalı Alan Uzunluğu :YOKC Il Kodu
D00001047#OF00000618#10067#Hatalı Alan Uzunluğu :YOKC Il Kodu
D00001048#OF00000620#10067#Hatalı Alan Uzunluğu :YOKC Il Kodu
D00001049#OF00000626#10067#Hatalı Alan Uzunluğu :YOKC Il Kodu
D00001050#OF00000627#10067#Hatalı Alan Uzunluğu :YOKC Il Kodu
D00001051#OF00000632#10067#Hatalı Alan Uzunluğu :YOKC Il Kodu
D00001052#OF00000633#10067#Hatalı Alan Uzunluğu :YOKC Il Kodu
D00001053#OF00000634#10067#Hatalı Alan Uzunluğu :YOKC Il Kodu
D00001054#OF00000637#10067#Hatalı Alan Uzunluğu :YOKC Il Kodu
D00001055#OF00000638#10067#Hatalı Alan Uzunluğu :YOKC Il Kodu
D00001056#OF00000641#10067#Hatalı Alan Uzunluğu :YOKC Il Kodu
D00001057#OF00000642#10067#Hatalı Alan Uzunluğu :YOKC Il Kodu
D00001058#OF00000685#10067#Hatalı Alan Uzunluğu :YOKC Il Kodu
D00001059#OF00000695#10067#Hatalı Alan Uzunluğu :YOKC Il Kodu
D00001060#OF00000707#10067#Hatalı Alan Uzunluğu :YOKC Il Kodu
D00001061#OF00000709#10067#Hatalı Alan Uzunluğu :YOKC Il Kodu
D00001062#OF00000727#10067#Hatalı Alan Uzunluğu :YOKC Il Kodu
D00001063#OF00000730#10067#Hatalı Alan Uzunluğu :YOKC Il Kodu
D00001064#OF00000735#10067#Hatalı Alan Uzunluğu :YOKC Il Kodu
D00001065#OF00000736#10067#Hatalı Alan Uzunluğu :YOKC Il Kodu
D00001066#OF00000738#10067#Hatalı Alan Uzunluğu :YOKC Il Kodu
D00001067#OF00000742#10067#Hatalı Alan Uzunluğu :YOKC Il Kodu
D00001068#OF00000744#10067#Hatalı Alan Uzunluğu :YOKC Il Kodu
D00001069#OF00000746#10067#Hatalı Alan Uzunluğu :YOKC Il Kodu
D00001070#OF00000750#10067#Hatalı Alan Uzunluğu :YOKC Il Kodu
D00001071#OF00000754#10067#Hatalı Alan Uzunluğu :YOKC Il Kodu
D00001072#OF00000798#10067#Hatalı Alan Uzunluğu :YOKC Il Kodu
D00001073#OF00000800#10067#Hatalı Alan Uzunluğu :YOKC Il Kodu
D00001074#OF00000801#10067#Hatalı Alan Uzunluğu :YOKC Il Kodu
D00001075#OF00000806#10067#Hatalı Alan Uzunluğu :YOKC Il Kodu
D00001076#OF00000808#10067#Hatalı Alan Uzunluğu :YOKC Il Kodu
D00001077#OF00000809#10067#Hatalı Alan Uzunluğu :YOKC Il Kodu
D00001078#OF00000812#10067#Hatalı Alan Uzunluğu :YOKC Il Kodu
D00001079#OF00000826#10067#Hatalı Alan Uzunluğu :YOKC Il Kodu
D00001080#OF00000859#10067#Hatalı Alan Uzunluğu :YOKC Il Kodu
D00001081#OF00000869#10067#Hatalı Alan Uzunluğu :YOKC Il Kodu
D00001082#OF00000737#10067#Hatalı Alan Uzunluğu :YOKC Il Kodu
D00001083#OF00000749#10067#Hatalı Alan Uzunluğu :YOKC Il Kodu
D00001084#OF00000367#10067#Hatalı Alan Uzunluğu :YOKC Il Kodu
D00001085#OF00000371#10067#Hatalı Alan Uzunluğu :YOKC Il Kodu
D00001086#OF00000372#10067#Hatalı Alan Uzunluğu :YOKC Il Kodu
D00001087#OF00000373#10067#Hatalı Alan Uzunluğu :YOKC Il Kodu
D00001088#OF00000374#10067#Hatalı Alan Uzunluğu :YOKC Il Kodu
D00001089#OF00000375#10067#Hatalı Alan Uzunluğu :YOKC Il Kodu
D00001090#OF00000378#10067#Hatalı Alan Uzunluğu :YOKC Il Kodu
D00001091#OF00000379#10067#Hatalı Alan Uzunluğu :YOKC Il Kodu
D00001092#OF00000390#10067#Hatalı Alan Uzunluğu :YOKC Il Kodu
D00001093#OF00000391#10067#Hatalı Alan Uzunluğu :YOKC Il Kodu
D00001094#OF00000392#10067#Hatalı Alan Uzunluğu :YOKC Il Kodu
D00001095#OF00000397#10067#Hatalı Alan Uzunluğu :YOKC Il Kodu
D00001096#OF00000412#10067#Hatalı Alan Uzunluğu :YOKC Il Kodu
D00001097#OF00000416#10067#Hatalı Alan Uzunluğu :YOKC Il Kodu
D00001098#OF00000417#10067#Hatalı Alan Uzunluğu :YOKC Il Kodu
D00001099#OF00000418#10067#Hatalı Alan Uzunluğu :YOKC Il Kodu
D00001100#OF00000424#10067#Hatalı Alan Uzunluğu :YOKC Il Kodu
D00001101#OF00000426#10067#Hatalı Alan Uzunluğu :YOKC Il Kodu
D00001102#OF00000427#10067#Hatalı Alan Uzunluğu :YOKC Il Kodu
D00001103#OF00000428#10067#Hatalı Alan Uzunluğu :YOKC Il Kodu
D00001104#OF00000457#10067#Hatalı Alan Uzunluğu :YOKC Il Kodu
D00001105#OF00000458#10067#Hatalı Alan Uzunluğu :YOKC Il Kodu
D00001106#OF00000483#10067#Hatalı Alan Uzunluğu :YOKC Il Kodu
D00001107#OF00000525#10067#Hatalı Alan Uzunluğu :YOKC Il Kodu
D00001108#OF00000555#10067#Hatalı Alan Uzunluğu :YOKC Il Kodu
D00001109#OF00000570#10067#Hatalı Alan Uzunluğu :YOKC Il Kodu
D00001110#OF00000081#10067#Hatalı Alan Uzunluğu :YOKC Il Kodu
D00001111#OF00000533#10067#Hatalı Alan Uzunluğu :YOKC Il Kodu
D00001112#OF00000574#10067#Hatalı Alan Uzunluğu :YOKC Il Kodu
D00001113#OF00000499#10067#Hatalı Alan Uzunluğu :YOKC Il Kodu
D00001114#OF00000792#10067#Hatalı Alan Uzunluğu :YOKC Il Kodu
D00001115#OF00000787#10067#Hatalı Alan Uzunluğu :YOKC Il Kodu
D00001116#OF00000518#10067#Hatalı Alan Uzunluğu :YOKC Il Kodu
D00001117#OF00001178#10067#Hatalı Alan Uzunluğu :YOKC Il Kodu
D00001118#OF00001043#10009#Alanın degeri bos yada yanlış :Fatura Seri No
D00001119#OF00001173#10009#Alanın degeri bos yada yanlış :Fatura Seri No
D00001120#OF00001174#10009#Alanın degeri bos yada yanlış :Fatura Seri No
D00001121#OF00001118#10009#Alanın degeri bos yada yanlış :Fatura Seri No
D00001122#OF00000784#10009#Alanın degeri bos yada yanlış :Fatura Seri No
D00001123#OF00000307#10067#Hatalı Alan Uzunluğu :YOKC Il Kodu
D00001124#OF00000420#10067#Hatalı Alan Uzunluğu :YOKC Il Kodu
D00001125#OF00000490#10067#Hatalı Alan Uzunluğu :YOKC Il Kodu
D00001126#OF00000511#10067#Hatalı Alan Uzunluğu :YOKC Il Kodu
D00001127#OF00000527#10067#Hatalı Alan Uzunluğu :YOKC Il Kodu
D00001128#OF00000531#10067#Hatalı Alan Uzunluğu :YOKC Il Kodu
D00001129#OF00000551#10067#Hatalı Alan Uzunluğu :YOKC Il Kodu
D00001130#OF00000563#10067#Hatalı Alan Uzunluğu :YOKC Il Kodu
D00001131#OF00000578#10067#Hatalı Alan Uzunluğu :YOKC Il Kodu
D00001132#OF00000598#10067#Hatalı Alan Uzunluğu :YOKC Il Kodu
D00001133#OF00000706#10067#Hatalı Alan Uzunluğu :YOKC Il Kodu
D00001134#OF00000720#10067#Hatalı Alan Uzunluğu :YOKC Il Kodu
D00001135#OF00000773#10067#Hatalı Alan Uzunluğu :YOKC Il Kodu
D00001136#OF00000802#10067#Hatalı Alan Uzunluğu :YOKC Il Kodu
D00001137#OF00000811#10067#Hatalı Alan Uzunluğu :YOKC Il Kodu
D00001138#OF00000838#10067#Hatalı Alan Uzunluğu :YOKC Il Kodu
D00001139#OF00000849#10067#Hatalı Alan Uzunluğu :YOKC Il Kodu
D00001140#OF00000855#10067#Hatalı Alan Uzunluğu :YOKC Il Kodu
D00001141#OF00001147#10067#Hatalı Alan Uzunluğu :YOKC Il Kodu
D00001142#OF00000366#10067#Hatalı Alan Uzunluğu :YOKC Il Kodu
D00001143#OF00000425#10067#Hatalı Alan Uzunluğu :YOKC Il Kodu
D00001144#OF00000526#10067#Hatalı Alan Uzunluğu :YOKC Il Kodu
D00001145#OF00000556#10067#Hatalı Alan Uzunluğu :YOKC Il Kodu
D00001146#OF00000571#10067#Hatalı Alan Uzunluğu :YOKC Il Kodu
D00001147#OF00000599#10067#Hatalı Alan Uzunluğu :YOKC Il Kodu
D00001148#OF00000775#10067#Hatalı Alan Uzunluğu :YOKC Il Kodu
D00001149#OF00000932#10067#Hatalı Alan Uzunluğu :YOKC Il Kodu
D00001150#OF00000940#10067#Hatalı Alan Uzunluğu :YOKC Il Kodu
D00001151#OF00001184#10067#Hatalı Alan Uzunluğu :YOKC Il Kodu
D00001152#OF00000117#10067#Hatalı Alan Uzunluğu :YOKC Il Kodu
D00001153#OF00000337#10067#Hatalı Alan Uzunluğu :YOKC Il Kodu
D00001154#OF00000616#10067#Hatalı Alan Uzunluğu :YOKC Il Kodu
D00001155#OF00000512#10067#Hatalı Alan Uzunluğu :YOKC Il Kodu
D00001156#OF00000353#10067#Hatalı Alan Uzunluğu :YOKC Il Kodu
D00001157#OF00001132#10067#Hatalı Alan Uzunluğu :YOKC Il Kodu
D00001158#OF00001188#10067#Hatalı Alan Uzunluğu :YOKC Il Kodu
D00001159#OF00000769#10067#Hatalı Alan Uzunluğu :YOKC Il Kodu
D00001160#OF00000245#10067#Hatalı Alan Uzunluğu :YOKC Il Kodu
D00001161#OF00000334#10067#Hatalı Alan Uzunluğu :YOKC Il Kodu
D00001162#OF00000122#10067#Hatalı Alan Uzunluğu :YOKC Il Kodu
D00001163#OF00000250#10067#Hatalı Alan Uzunluğu :YOKC Il Kodu
D00001164#OF00000101#10067#Hatalı Alan Uzunluğu :YOKC Il Kodu
D00001165#OF00001106#10067#Hatalı Alan Uzunluğu :YOKC Il Kodu
D00001166#OF00000460#10067#Hatalı Alan Uzunluğu :YOKC Il Kodu
D00001167#OF00000519#10067#Hatalı Alan Uzunluğu :YOKC Il Kodu
D00001168#OF00000712#10067#Hatalı Alan Uzunluğu :YOKC Il Kodu
D00001169#OF00001085#10067#Hatalı Alan Uzunluğu :YOKC Il Kodu
D00001170#OF00000580#10067#Hatalı Alan Uzunluğu :YOKC Il Kodu
D00001171#OF00000909#10067#Hatalı Alan Uzunluğu :YOKC Il Kodu
D00001172#OF00000915#10067#Hatalı Alan Uzunluğu :YOKC Il Kodu
D00001173#OF00001155#10009#Alanın degeri bos yada yanlış :Fatura Seri No
D00001174#OF00001186#10067#Hatalı Alan Uzunluğu :YOKC Il Kodu
D00001175#OF00001156#10067#Hatalı Alan Uzunluğu :YOKC Il Kodu
D00001176#OF00001189#10067#Hatalı Alan Uzunluğu :YOKC Il Kodu
D00001177#OF00001190#10067#Hatalı Alan Uzunluğu :YOKC Il Kodu
D00001178#OF00000699#10067#Hatalı Alan Uzunluğu :YOKC Il Kodu
D00001179#OF00000352#10067#Hatalı Alan Uzunluğu :YOKC Il Kodu
D00001180#OF00001169#10067#Hatalı Alan Uzunluğu :YOKC Il Kodu
D00001181#OF00001172#10067#Hatalı Alan Uzunluğu :YOKC Il Kodu
D00001182#OF00001168#10067#Hatalı Alan Uzunluğu :YOKC Il Kodu
D00001183#OF00000489#10067#Hatalı Alan Uzunluğu :YOKC Il Kodu
D00001184#OF00001187#10067#Hatalı Alan Uzunluğu :YOKC Il Kodu
D00001185#OF00001068#10067#Hatalı Alan Uzunluğu :YOKC Il Kodu
D00001186#OF00001146#10067#Hatalı Alan Uzunluğu :YOKC Il Kodu
D00001187#OF00000485#10067#Hatalı Alan Uzunluğu :YOKC Il Kodu
D00001188#OF00000389#10067#Hatalı Alan Uzunluğu :YOKC Il Kodu
D00001189#OF00001148#10067#Hatalı Alan Uzunluğu :YOKC Il Kodu
D00001190#OF00001199#10067#Hatalı Alan Uzunluğu :YOKC Il Kodu
D00001191#OF00001200#10067#Hatalı Alan Uzunluğu :YOKC Il Kodu
D00001192#OF00001201#10067#Hatalı Alan Uzunluğu :YOKC Il Kodu
D00001193#OF00001202#10067#Hatalı Alan Uzunluğu :YOKC Il Kodu
D00001194#OF00001203#10067#Hatalı Alan Uzunluğu :YOKC Il Kodu
D00001195#OF00001204#10067#Hatalı Alan Uzunluğu :YOKC Il Kodu
D00001196#OF00001205#10067#Hatalı Alan Uzunluğu :YOKC Il Kodu
D00001197#OF00001206#10067#Hatalı Alan Uzunluğu :YOKC Il Kodu
D00001198#OF00001207#10067#Hatalı Alan Uzunluğu :YOKC Il Kodu
D00001199#OF00001208#10067#Hatalı Alan Uzunluğu :YOKC Il Kodu
D00001200#OF00001209#10067#Hatalı Alan Uzunluğu :YOKC Il Kodu
D00001201#OF00001210#10067#Hatalı Alan Uzunluğu :YOKC Il Kodu
D00001202#OF00001211#10067#Hatalı Alan Uzunluğu :YOKC Il Kodu
D00001203#OF00001212#10067#Hatalı Alan Uzunluğu :YOKC Il Kodu
D00001204#OF00001213#10067#Hatalı Alan Uzunluğu :YOKC Il Kodu
D00001205#OF00001214#10067#Hatalı Alan Uzunluğu :YOKC Il Kodu
D00001206#OF00001215#10067#Hatalı Alan Uzunluğu :YOKC Il Kodu
D00001207#OF00001216#10067#Hatalı Alan Uzunluğu :YOKC Il Kodu
D00001208#OF00001217#10067#Hatalı Alan Uzunluğu :YOKC Il Kodu
D00001209#OF00001218#10067#Hatalı Alan Uzunluğu :YOKC Il Kodu
D00001210#OF00001219#10067#Hatalı Alan Uzunluğu :YOKC Il Kodu
D00001211#OF00001220#10067#Hatalı Alan Uzunluğu :YOKC Il Kodu
D00001212#OF00001221#10067#Hatalı Alan Uzunluğu :YOKC Il Kodu
D00001213#OF00001222#10067#Hatalı Alan Uzunluğu :YOKC Il Kodu
D00001214#OF00001223#10067#Hatalı Alan Uzunluğu :YOKC Il Kodu
D00001215#OF00001224#10067#Hatalı Alan Uzunluğu :YOKC Il Kodu
D00001216#OF00001225#10067#Hatalı Alan Uzunluğu :YOKC Il Kodu
D00001217#OF00001226#10067#Hatalı Alan Uzunluğu :YOKC Il Kodu
D00001218#OF00001227#10067#Hatalı Alan Uzunluğu :YOKC Il Kodu
D00001219#OF00001228#10067#Hatalı Alan Uzunluğu :YOKC Il Kodu
D00001220#OF00001229#10067#Hatalı Alan Uzunluğu :YOKC Il Kodu
D00001221#OF00001230#10067#Hatalı Alan Uzunluğu :YOKC Il Kodu
D00001222#OF00001231#10067#Hatalı Alan Uzunluğu :YOKC Il Kodu
D00001223#OF00001232#10067#Hatalı Alan Uzunluğu :YOKC Il Kodu
D00001224#OF00001233#10067#Hatalı Alan Uzunluğu :YOKC Il Kodu
D00001225#OF00001234#10067#Hatalı Alan Uzunluğu :YOKC Il Kodu
D00001226#OF00001235#10067#Hatalı Alan Uzunluğu :YOKC Il Kodu
D00001227#OF00001236#10067#Hatalı Alan Uzunluğu :YOKC Il Kodu
D00001228#OF00001237#10067#Hatalı Alan Uzunluğu :YOKC Il Kodu
D00001229#OF00001238#10067#Hatalı Alan Uzunluğu :YOKC Il Kodu
D00001230#OF00001239#10067#Hatalı Alan Uzunluğu :YOKC Il Kodu
D00001231#OF00001240#10067#Hatalı Alan Uzunluğu :YOKC Il Kodu
D00001232#OF00001241#10067#Hatalı Alan Uzunluğu :YOKC Il Kodu
D00001233#OF00001242#10067#Hatalı Alan Uzunluğu :YOKC Il Kodu
D00001234#OF00001243#10067#Hatalı Alan Uzunluğu :YOKC Il Kodu
D00001235#OF00001244#10067#Hatalı Alan Uzunluğu :YOKC Il Kodu
D00001236#OF00001245#10067#Hatalı Alan Uzunluğu :YOKC Il Kodu
D00001237#OF00001246#10067#Hatalı Alan Uzunluğu :YOKC Il Kodu
D00001238#OF00001247#10067#Hatalı Alan Uzunluğu :YOKC Il Kodu
D00001239#OF00001248#10067#Hatalı Alan Uzunluğu :YOKC Il Kodu
D00001240#OF00001249#10067#Hatalı Alan Uzunluğu :YOKC Il Kodu
D00001241#OF00001250#10067#Hatalı Alan Uzunluğu :YOKC Il Kodu
D00001242#OF00001197#10067#Hatalı Alan Uzunluğu :YOKC Il Kodu
D00001243#OF00001198#10067#Hatalı Alan Uzunluğu :YOKC Il Kodu
F1243
V001#000000000113#Mühürlü cihaz[Sertifika bilgisi olmayan]#
V002#000000001131#Mühürlü cihaz[Sertifika bilgisi olan]#
V003#000000000000#Aktivasyonu yapılmış cihaz#
V004#000000000000#Kapalı cihaz#
V005#000000000000#Hurdaya ayrılmış cihaz#
V006#000000000000#Kayıp çalıntı cihaz#
