﻿H00012016042901O
D00000001OF00001088  10003Public key kaydi bulunamadi.                      
D00000002OF00001089  10003Public key kaydi bulunamadi.                      
D00000003OF00000862  10003Public key kaydi bulunamadi.                      
D00000004OF00000592  10003Public key kaydi bulunamadi.                      
D00000005OF00000524  10003Public key kaydi bulunamadi.                      
D00000006OF00000522  10003Public key kaydi bulunamadi.                      
D00000007OF00000540  10003Public key kaydi bulunamadi.                      
D00000008OF00000553  10003Public key kaydi bulunamadi.                      
D00000009OF00001081  10015VEDOP da mukellefe ait kayit yok yada OKC alamaz  
F9
