﻿H00012016042801O
D00000001OF00000788  10003Public key kaydi bulunamadi.                      
D00000002OF00000364  10003Public key kaydi bulunamadi.                      
D00000003OF00000691  10003Public key kaydi bulunamadi.                      
D00000004OF00000923  10003Public key kaydi bulunamadi.                      
F4
