﻿H00012016051601O
D00000001OF00000419  10003Public key kaydi bulunamadi.                      
D00000002OF00000001  10003Public key kaydi bulunamadi.                      
D00000003OF00000010  10003Public key kaydi bulunamadi.                      
D00000004OF00000015  10003Public key kaydi bulunamadi.                      
D00000005OF00000018  10003Public key kaydi bulunamadi.                      
D00000006OF00000026  10003Public key kaydi bulunamadi.                      
D00000007OF00000027  10003Public key kaydi bulunamadi.                      
D00000008OF00000028  10003Public key kaydi bulunamadi.                      
D00000009OF00000031  10003Public key kaydi bulunamadi.                      
D00000010OF00000033  10003Public key kaydi bulunamadi.                      
D00000011OF00000043  10003Public key kaydi bulunamadi.                      
D00000012OF00000044  10003Public key kaydi bulunamadi.                      
D00000013OF00000050  10003Public key kaydi bulunamadi.                      
D00000014OF00000051  10003Public key kaydi bulunamadi.                      
D00000015OF00000056  10003Public key kaydi bulunamadi.                      
D00000016OF00000136  10003Public key kaydi bulunamadi.                      
D00000017OF00000137  10003Public key kaydi bulunamadi.                      
D00000018OF00000845  10003Public key kaydi bulunamadi.                      
D00000019OF00000064  10003Public key kaydi bulunamadi.                      
D00000020OF00000823  10003Public key kaydi bulunamadi.                      
D00000021OF00000837  10003Public key kaydi bulunamadi.                      
D00000022OF00000839  10003Public key kaydi bulunamadi.                      
D00000023OF00000854  10003Public key kaydi bulunamadi.                      
D00000024OF00000948  10003Public key kaydi bulunamadi.                      
D00000025OF00000953  10003Public key kaydi bulunamadi.                      
D00000026OF00000955  10003Public key kaydi bulunamadi.                      
D00000027OF00001041  10003Public key kaydi bulunamadi.                      
D00000028OF00000951  10003Public key kaydi bulunamadi.                      
D00000029OF00000954  10015VEDOP da mukellefe ait kayit yok yada OKC alamaz  
D00000030OF00000724  10003Public key kaydi bulunamadi.                      
D00000031OF00000747  10003Public key kaydi bulunamadi.                      
D00000032OF00000751  10003Public key kaydi bulunamadi.                      
D00000033OF00000752  10003Public key kaydi bulunamadi.                      
D00000034OF00000760  10003Public key kaydi bulunamadi.                      
D00000035OF00000768  10003Public key kaydi bulunamadi.                      
D00000036OF00000804  10003Public key kaydi bulunamadi.                      
D00000037OF00000848  10003Public key kaydi bulunamadi.                      
D00000038OF00000892  10003Public key kaydi bulunamadi.                      
D00000039OF00000766  10003Public key kaydi bulunamadi.                      
D00000040OF00000794  10003Public key kaydi bulunamadi.                      
D00000041OF00000871  10003Public key kaydi bulunamadi.                      
D00000042OF00000874  10003Public key kaydi bulunamadi.                      
D00000043OF00000034  10003Public key kaydi bulunamadi.                      
D00000044OF00000052  10003Public key kaydi bulunamadi.                      
D00000045OF00000160  10003Public key kaydi bulunamadi.                      
D00000046OF00000193  10003Public key kaydi bulunamadi.                      
D00000047OF00000194  10003Public key kaydi bulunamadi.                      
D00000048OF00000165  10003Public key kaydi bulunamadi.                      
D00000049OF00000166  10003Public key kaydi bulunamadi.                      
D00000050OF00000190  10003Public key kaydi bulunamadi.                      
D00000051OF00000191  10003Public key kaydi bulunamadi.                      
D00000052OF00000192  10003Public key kaydi bulunamadi.                      
D00000053OF00000039  10003Public key kaydi bulunamadi.                      
D00000054OF00000197  10003Public key kaydi bulunamadi.                      
D00000055OF00000199  10003Public key kaydi bulunamadi.                      
D00000056OF00000207  10003Public key kaydi bulunamadi.                      
D00000057OF00000214  10003Public key kaydi bulunamadi.                      
D00000058OF00000216  10003Public key kaydi bulunamadi.                      
D00000059OF00000071  10003Public key kaydi bulunamadi.                      
D00000060OF00000083  10003Public key kaydi bulunamadi.                      
D00000061OF00000084  10003Public key kaydi bulunamadi.                      
D00000062OF00000102  10003Public key kaydi bulunamadi.                      
D00000063OF00000106  10003Public key kaydi bulunamadi.                      
D00000064OF00000107  10003Public key kaydi bulunamadi.                      
D00000065OF00000104  10003Public key kaydi bulunamadi.                      
D00000066OF00000073  10003Public key kaydi bulunamadi.                      
D00000067OF00000080  10003Public key kaydi bulunamadi.                      
D00000068OF00000118  10003Public key kaydi bulunamadi.                      
D00000069OF00000077  10003Public key kaydi bulunamadi.                      
D00000070OF00000085  10003Public key kaydi bulunamadi.                      
D00000071OF00000046  10003Public key kaydi bulunamadi.                      
D00000072OF00000093  10003Public key kaydi bulunamadi.                      
D00000073OF00001069  10003Public key kaydi bulunamadi.                      
D00000074OF00000119  10003Public key kaydi bulunamadi.                      
D00000075OF00000124  10003Public key kaydi bulunamadi.                      
D00000076OF00000152  10003Public key kaydi bulunamadi.                      
D00000077OF00000155  10003Public key kaydi bulunamadi.                      
D00000078OF00000157  10003Public key kaydi bulunamadi.                      
D00000079OF00000072  10003Public key kaydi bulunamadi.                      
D00000080OF00000095  10003Public key kaydi bulunamadi.                      
D00000081OF00000088  10003Public key kaydi bulunamadi.                      
D00000082OF00000108  10003Public key kaydi bulunamadi.                      
D00000083OF00000112  10003Public key kaydi bulunamadi.                      
D00000084OF00000135  10003Public key kaydi bulunamadi.                      
D00000085OF00000159  10003Public key kaydi bulunamadi.                      
D00000086OF00000164  10003Public key kaydi bulunamadi.                      
D00000087OF00000174  10003Public key kaydi bulunamadi.                      
D00000088OF00000181  10003Public key kaydi bulunamadi.                      
D00000089OF00000225  10003Public key kaydi bulunamadi.                      
D00000090OF00000857  10003Public key kaydi bulunamadi.                      
D00000091OF00000008  10003Public key kaydi bulunamadi.                      
D00000092OF00000066  10003Public key kaydi bulunamadi.                      
D00000093OF00000029  10003Public key kaydi bulunamadi.                      
D00000094OF00000035  10003Public key kaydi bulunamadi.                      
D00000095OF00000038  10003Public key kaydi bulunamadi.                      
D00000096OF00000047  10003Public key kaydi bulunamadi.                      
D00000097OF00000178  10003Public key kaydi bulunamadi.                      
D00000098OF00000110  10003Public key kaydi bulunamadi.                      
D00000099OF00000131  10003Public key kaydi bulunamadi.                      
D00000100OF00000239  10003Public key kaydi bulunamadi.                      
D00000101OF00000240  10003Public key kaydi bulunamadi.                      
D00000102OF00000241  10003Public key kaydi bulunamadi.                      
D00000103OF00000143  10003Public key kaydi bulunamadi.                      
D00000104OF00000693  10003Public key kaydi bulunamadi.                      
D00000105OF00000822  10003Public key kaydi bulunamadi.                      
D00000106OF00000021  10003Public key kaydi bulunamadi.                      
D00000107OF00000053  10003Public key kaydi bulunamadi.                      
D00000108OF00000111  10003Public key kaydi bulunamadi.                      
D00000109OF00000076  10003Public key kaydi bulunamadi.                      
D00000110OF00000134  10003Public key kaydi bulunamadi.                      
D00000111OF00000168  10003Public key kaydi bulunamadi.                      
D00000112OF00000169  10003Public key kaydi bulunamadi.                      
D00000113OF00000175  10003Public key kaydi bulunamadi.                      
D00000114OF00000188  10003Public key kaydi bulunamadi.                      
D00000115OF00000186  10003Public key kaydi bulunamadi.                      
D00000116OF00000203  10003Public key kaydi bulunamadi.                      
D00000117OF00000209  10003Public key kaydi bulunamadi.                      
D00000118OF00000055  10003Public key kaydi bulunamadi.                      
D00000119OF00000218  10003Public key kaydi bulunamadi.                      
D00000120OF00000281  10003Public key kaydi bulunamadi.                      
D00000121OF00000282  10003Public key kaydi bulunamadi.                      
D00000122OF00000288  10003Public key kaydi bulunamadi.                      
D00000123OF00000293  10003Public key kaydi bulunamadi.                      
D00000124OF00000300  10003Public key kaydi bulunamadi.                      
D00000125OF00000261  10003Public key kaydi bulunamadi.                      
D00000126OF00000176  10003Public key kaydi bulunamadi.                      
D00000127OF00000184  10003Public key kaydi bulunamadi.                      
D00000128OF00000179  10003Public key kaydi bulunamadi.                      
D00000129OF00000202  10003Public key kaydi bulunamadi.                      
D00000130OF00000210  10003Public key kaydi bulunamadi.                      
D00000131OF00000213  10003Public key kaydi bulunamadi.                      
D00000132OF00000215  10003Public key kaydi bulunamadi.                      
D00000133OF00000217  10003Public key kaydi bulunamadi.                      
D00000134OF00000230  10003Public key kaydi bulunamadi.                      
D00000135OF00000231  10003Public key kaydi bulunamadi.                      
D00000136OF00000232  10003Public key kaydi bulunamadi.                      
D00000137OF00000233  10003Public key kaydi bulunamadi.                      
D00000138OF00000234  10003Public key kaydi bulunamadi.                      
D00000139OF00000235  10003Public key kaydi bulunamadi.                      
D00000140OF00000236  10003Public key kaydi bulunamadi.                      
D00000141OF00000237  10003Public key kaydi bulunamadi.                      
D00000142OF00000068  10003Public key kaydi bulunamadi.                      
D00000143OF00000082  10003Public key kaydi bulunamadi.                      
D00000144OF00001136  10003Public key kaydi bulunamadi.                      
D00000145OF00000158  10003Public key kaydi bulunamadi.                      
D00000146OF00000140  10003Public key kaydi bulunamadi.                      
D00000147OF00000074  10003Public key kaydi bulunamadi.                      
D00000148OF00000705  10003Public key kaydi bulunamadi.                      
D00000149OF00000779  10003Public key kaydi bulunamadi.                      
D00000150OF00000844  10003Public key kaydi bulunamadi.                      
D00000151OF00000831  10003Public key kaydi bulunamadi.                      
D00000152OF00000840  10003Public key kaydi bulunamadi.                      
D00000153OF00001039  10003Public key kaydi bulunamadi.                      
D00000154OF00000012  10003Public key kaydi bulunamadi.                      
D00000155OF00000133  10003Public key kaydi bulunamadi.                      
D00000156OF00000120  10003Public key kaydi bulunamadi.                      
D00000157OF00000139  10003Public key kaydi bulunamadi.                      
D00000158OF00000142  10003Public key kaydi bulunamadi.                      
D00000159OF00000058  10003Public key kaydi bulunamadi.                      
D00000160OF00000079  10003Public key kaydi bulunamadi.                      
D00000161OF00000114  10003Public key kaydi bulunamadi.                      
D00000162OF00000091  10003Public key kaydi bulunamadi.                      
D00000163OF00001071  10003Public key kaydi bulunamadi.                      
D00000164OF00000003  10003Public key kaydi bulunamadi.                      
D00000165OF00000851  10003Public key kaydi bulunamadi.                      
D00000166OF00000002  10003Public key kaydi bulunamadi.                      
D00000167OF00000415  10003Public key kaydi bulunamadi.                      
D00000168OF00000221  10003Public key kaydi bulunamadi.                      
D00000169OF00000227  10003Public key kaydi bulunamadi.                      
D00000170OF00000228  10003Public key kaydi bulunamadi.                      
D00000171OF00000229  10003Public key kaydi bulunamadi.                      
D00000172OF00000242  10003Public key kaydi bulunamadi.                      
D00000173OF00000248  10003Public key kaydi bulunamadi.                      
D00000174OF00000252  10003Public key kaydi bulunamadi.                      
D00000175OF00000256  10003Public key kaydi bulunamadi.                      
D00000176OF00000115  10003Public key kaydi bulunamadi.                      
D00000177OF00000148  10003Public key kaydi bulunamadi.                      
D00000178OF00000100  10003Public key kaydi bulunamadi.                      
D00000179OF00000189  10003Public key kaydi bulunamadi.                      
D00000180OF00000187  10003Public key kaydi bulunamadi.                      
D00000181OF00000172  10003Public key kaydi bulunamadi.                      
D00000182OF00000182  10003Public key kaydi bulunamadi.                      
D00000183OF00000154  10003Public key kaydi bulunamadi.                      
D00000184OF00000222  10003Public key kaydi bulunamadi.                      
D00000185OF00000037  10003Public key kaydi bulunamadi.                      
D00000186OF00000177  10003Public key kaydi bulunamadi.                      
D00000187OF00000211  10003Public key kaydi bulunamadi.                      
D00000188OF00000204  10003Public key kaydi bulunamadi.                      
D00000189OF00000196  10003Public key kaydi bulunamadi.                      
D00000190OF00000032  10003Public key kaydi bulunamadi.                      
D00000191OF00000195  10003Public key kaydi bulunamadi.                      
D00000192OF00000200  10003Public key kaydi bulunamadi.                      
D00000193OF00000201  10003Public key kaydi bulunamadi.                      
D00000194OF00000161  10003Public key kaydi bulunamadi.                      
D00000195OF00000167  10003Public key kaydi bulunamadi.                      
D00000196OF00000170  10003Public key kaydi bulunamadi.                      
D00000197OF00000173  10003Public key kaydi bulunamadi.                      
D00000198OF00000185  10003Public key kaydi bulunamadi.                      
D00000199OF00000206  10003Public key kaydi bulunamadi.                      
D00000200OF00000212  10003Public key kaydi bulunamadi.                      
D00000201OF00000291  10003Public key kaydi bulunamadi.                      
D00000202OF00000092  10003Public key kaydi bulunamadi.                      
D00000203OF00000147  10003Public key kaydi bulunamadi.                      
D00000204OF00000096  10003Public key kaydi bulunamadi.                      
D00000205OF00000113  10003Public key kaydi bulunamadi.                      
D00000206OF00000045  10003Public key kaydi bulunamadi.                      
D00000207OF00000075  10003Public key kaydi bulunamadi.                      
D00000208OF00001154  10003Public key kaydi bulunamadi.                      
D00000209OF00000395  10003Public key kaydi bulunamadi.                      
D00000210OF00000461  10003Public key kaydi bulunamadi.                      
D00000211OF00000462  10003Public key kaydi bulunamadi.                      
D00000212OF00000464  10003Public key kaydi bulunamadi.                      
D00000213OF00000465  10003Public key kaydi bulunamadi.                      
D00000214OF00000466  10003Public key kaydi bulunamadi.                      
D00000215OF00000469  10003Public key kaydi bulunamadi.                      
D00000216OF00000470  10003Public key kaydi bulunamadi.                      
D00000217OF00000471  10003Public key kaydi bulunamadi.                      
D00000218OF00000472  10003Public key kaydi bulunamadi.                      
D00000219OF00000474  10003Public key kaydi bulunamadi.                      
D00000220OF00000475  10003Public key kaydi bulunamadi.                      
D00000221OF00000478  10003Public key kaydi bulunamadi.                      
D00000222OF00000479  10003Public key kaydi bulunamadi.                      
D00000223OF00000480  10003Public key kaydi bulunamadi.                      
D00000224OF00001153  10003Public key kaydi bulunamadi.                      
D00000225OF00001139  10003Public key kaydi bulunamadi.                      
D00000226OF00001151  10003Public key kaydi bulunamadi.                      
D00000227OF00001145  10003Public key kaydi bulunamadi.                      
D00000228OF00001141  10003Public key kaydi bulunamadi.                      
D00000229OF00001138  10003Public key kaydi bulunamadi.                      
D00000230OF00001142  10003Public key kaydi bulunamadi.                      
D00000231OF00001143  10003Public key kaydi bulunamadi.                      
D00000232OF00001152  10003Public key kaydi bulunamadi.                      
D00000233OF00001144  10003Public key kaydi bulunamadi.                      
D00000234OF00000304  10003Public key kaydi bulunamadi.                      
D00000235OF00001149  10003Public key kaydi bulunamadi.                      
D00000236OF00001150  10003Public key kaydi bulunamadi.                      
D00000237OF00000440  10003Public key kaydi bulunamadi.                      
D00000238OF00000436  10003Public key kaydi bulunamadi.                      
D00000239OF00000444  10003Public key kaydi bulunamadi.                      
D00000240OF00000432  10003Public key kaydi bulunamadi.                      
D00000241OF00000435  10003Public key kaydi bulunamadi.                      
D00000242OF00000437  10003Public key kaydi bulunamadi.                      
D00000243OF00000450  10003Public key kaydi bulunamadi.                      
D00000244OF00000446  10003Public key kaydi bulunamadi.                      
D00000245OF00000430  10003Public key kaydi bulunamadi.                      
D00000246OF00000439  10003Public key kaydi bulunamadi.                      
D00000247OF00000448  10003Public key kaydi bulunamadi.                      
D00000248OF00000449  10003Public key kaydi bulunamadi.                      
D00000249OF00000429  10003Public key kaydi bulunamadi.                      
D00000250OF00000453  10003Public key kaydi bulunamadi.                      
D00000251OF00000456  10003Public key kaydi bulunamadi.                      
D00000252OF00000434  10003Public key kaydi bulunamadi.                      
D00000253OF00000451  10003Public key kaydi bulunamadi.                      
D00000254OF00000441  10003Public key kaydi bulunamadi.                      
D00000255OF00000452  10003Public key kaydi bulunamadi.                      
D00000256OF00000438  10003Public key kaydi bulunamadi.                      
D00000257OF00000455  10003Public key kaydi bulunamadi.                      
D00000258OF00000454  10003Public key kaydi bulunamadi.                      
D00000259OF00000443  10003Public key kaydi bulunamadi.                      
D00000260OF00000431  10003Public key kaydi bulunamadi.                      
D00000261OF00000433  10003Public key kaydi bulunamadi.                      
D00000262OF00000445  10003Public key kaydi bulunamadi.                      
D00000263OF00000447  10003Public key kaydi bulunamadi.                      
D00000264OF00000442  10003Public key kaydi bulunamadi.                      
D00000265OF00000388  10003Public key kaydi bulunamadi.                      
D00000266OF00001137  10003Public key kaydi bulunamadi.                      
D00000267OF00001133  10003Public key kaydi bulunamadi.                      
D00000268OF00001127  10003Public key kaydi bulunamadi.                      
D00000269OF00001131  10003Public key kaydi bulunamadi.                      
D00000270OF00001134  10003Public key kaydi bulunamadi.                      
D00000271OF00001135  10003Public key kaydi bulunamadi.                      
D00000272OF00001128  10003Public key kaydi bulunamadi.                      
D00000273OF00001129  10003Public key kaydi bulunamadi.                      
D00000274OF00001130  10003Public key kaydi bulunamadi.                      
D00000275OF00000380  10003Public key kaydi bulunamadi.                      
D00000276OF00000381  10003Public key kaydi bulunamadi.                      
D00000277OF00000382  10003Public key kaydi bulunamadi.                      
D00000278OF00000383  10003Public key kaydi bulunamadi.                      
D00000279OF00000384  10003Public key kaydi bulunamadi.                      
D00000280OF00000385  10003Public key kaydi bulunamadi.                      
D00000281OF00001116  10003Public key kaydi bulunamadi.                      
D00000282OF00001117  10003Public key kaydi bulunamadi.                      
D00000283OF00001119  10003Public key kaydi bulunamadi.                      
D00000284OF00001120  10003Public key kaydi bulunamadi.                      
D00000285OF00001121  10003Public key kaydi bulunamadi.                      
D00000286OF00001123  10003Public key kaydi bulunamadi.                      
D00000287OF00001124  10003Public key kaydi bulunamadi.                      
D00000288OF00001125  10003Public key kaydi bulunamadi.                      
D00000289OF00001126  10003Public key kaydi bulunamadi.                      
D00000290OF00000189  10003Public key kaydi bulunamadi.                      
D00000291OF00000187  10003Public key kaydi bulunamadi.                      
D00000292OF00000172  10003Public key kaydi bulunamadi.                      
D00000293OF00000182  10003Public key kaydi bulunamadi.                      
D00000294OF00000154  10003Public key kaydi bulunamadi.                      
D00000295OF00000037  10015VEDOP da mukellefe ait kayit yok yada OKC alamaz  
D00000296OF00000177  10015VEDOP da mukellefe ait kayit yok yada OKC alamaz  
D00000297OF00000211  10015VEDOP da mukellefe ait kayit yok yada OKC alamaz  
D00000298OF00000204  10015VEDOP da mukellefe ait kayit yok yada OKC alamaz  
D00000299OF00000196  10015VEDOP da mukellefe ait kayit yok yada OKC alamaz  
D00000300OF00000032  10015VEDOP da mukellefe ait kayit yok yada OKC alamaz  
D00000301OF00000195  10015VEDOP da mukellefe ait kayit yok yada OKC alamaz  
D00000302OF00000200  10015VEDOP da mukellefe ait kayit yok yada OKC alamaz  
D00000303OF00000201  10015VEDOP da mukellefe ait kayit yok yada OKC alamaz  
D00000304OF00000161  10015VEDOP da mukellefe ait kayit yok yada OKC alamaz  
D00000305OF00000167  10015VEDOP da mukellefe ait kayit yok yada OKC alamaz  
D00000306OF00000170  10015VEDOP da mukellefe ait kayit yok yada OKC alamaz  
D00000307OF00000173  10015VEDOP da mukellefe ait kayit yok yada OKC alamaz  
D00000308OF00000185  10015VEDOP da mukellefe ait kayit yok yada OKC alamaz  
D00000309OF00000206  10015VEDOP da mukellefe ait kayit yok yada OKC alamaz  
D00000310OF00000212  10015VEDOP da mukellefe ait kayit yok yada OKC alamaz  
D00000311OF00000797  10015VEDOP da mukellefe ait kayit yok yada OKC alamaz  
D00000312OF00000205  10015VEDOP da mukellefe ait kayit yok yada OKC alamaz  
D00000313OF00000223  10015VEDOP da mukellefe ait kayit yok yada OKC alamaz  
D00000314OF00000224  10015VEDOP da mukellefe ait kayit yok yada OKC alamaz  
D00000315OF00000880  10015VEDOP da mukellefe ait kayit yok yada OKC alamaz  
D00000316OF00001071  10015VEDOP da mukellefe ait kayit yok yada OKC alamaz  
D00000317OF00000488  10003Public key kaydi bulunamadi.                      
D00000318OF00000957  10003Public key kaydi bulunamadi.                      
D00000319OF00000958  10003Public key kaydi bulunamadi.                      
D00000320OF00001037  10003Public key kaydi bulunamadi.                      
D00000321OF00001087  10015VEDOP da mukellefe ait kayit yok yada OKC alamaz  
D00000322OF00001123  10022Bu okc başka bir mükellef adına kayıtlı           
D00000323OF00001183  10003Public key kaydi bulunamadi.                      
D00000324OF00000731  10022Bu okc başka bir mükellef adına kayıtlı           
D00000325OF00001164  10003Public key kaydi bulunamadi.                      
D00000326OF00001122  10003Public key kaydi bulunamadi.                      
D00000327OF00000316  10003Public key kaydi bulunamadi.                      
D00000328OF00000318  10003Public key kaydi bulunamadi.                      
D00000329OF00000326  10003Public key kaydi bulunamadi.                      
D00000330OF00000331  10003Public key kaydi bulunamadi.                      
D00000331OF00000503  10003Public key kaydi bulunamadi.                      
D00000332OF00000513  10003Public key kaydi bulunamadi.                      
D00000333OF00000514  10003Public key kaydi bulunamadi.                      
D00000334OF00000517  10003Public key kaydi bulunamadi.                      
D00000335OF00000530  10003Public key kaydi bulunamadi.                      
D00000336OF00000535  10003Public key kaydi bulunamadi.                      
D00000337OF00000541  10003Public key kaydi bulunamadi.                      
D00000338OF00000542  10003Public key kaydi bulunamadi.                      
D00000339OF00000543  10003Public key kaydi bulunamadi.                      
D00000340OF00000548  10003Public key kaydi bulunamadi.                      
D00000341OF00000568  10003Public key kaydi bulunamadi.                      
D00000342OF00000572  10003Public key kaydi bulunamadi.                      
D00000343OF00000577  10003Public key kaydi bulunamadi.                      
D00000344OF00000581  10003Public key kaydi bulunamadi.                      
D00000345OF00000595  10003Public key kaydi bulunamadi.                      
D00000346OF00000597  10003Public key kaydi bulunamadi.                      
D00000347OF00000602  10003Public key kaydi bulunamadi.                      
D00000348OF00000607  10003Public key kaydi bulunamadi.                      
D00000349OF00000608  10003Public key kaydi bulunamadi.                      
D00000350OF00000612  10003Public key kaydi bulunamadi.                      
D00000351OF00000623  10003Public key kaydi bulunamadi.                      
D00000352OF00000888  10003Public key kaydi bulunamadi.                      
D00000353OF00000814  10003Public key kaydi bulunamadi.                      
D00000354OF00000631  10003Public key kaydi bulunamadi.                      
D00000355OF00000723  10003Public key kaydi bulunamadi.                      
D00000356OF00000728  10003Public key kaydi bulunamadi.                      
D00000357OF00000745  10003Public key kaydi bulunamadi.                      
D00000358OF00000782  10003Public key kaydi bulunamadi.                      
D00000359OF00000810  10003Public key kaydi bulunamadi.                      
D00000360OF00000913  10003Public key kaydi bulunamadi.                      
D00000361OF00001082  10003Public key kaydi bulunamadi.                      
D00000362OF00001083  10003Public key kaydi bulunamadi.                      
D00000363OF00001084  10003Public key kaydi bulunamadi.                      
D00000364OF00001100  10003Public key kaydi bulunamadi.                      
D00000365OF00001177  10003Public key kaydi bulunamadi.                      
D00000366OF00001179  10003Public key kaydi bulunamadi.                      
D00000367OF00000613  10003Public key kaydi bulunamadi.                      
D00000368OF00000609  10003Public key kaydi bulunamadi.                      
D00000369OF00000624  10003Public key kaydi bulunamadi.                      
D00000370OF00000589  10003Public key kaydi bulunamadi.                      
D00000371OF00000508  10003Public key kaydi bulunamadi.                      
D00000372OF00000520  10003Public key kaydi bulunamadi.                      
D00000373OF00000500  10003Public key kaydi bulunamadi.                      
D00000374OF00000625  10003Public key kaydi bulunamadi.                      
D00000375OF00000600  10003Public key kaydi bulunamadi.                      
D00000376OF00000619  10003Public key kaydi bulunamadi.                      
D00000377OF00000628  10003Public key kaydi bulunamadi.                      
D00000378OF00000636  10003Public key kaydi bulunamadi.                      
D00000379OF00000640  10003Public key kaydi bulunamadi.                      
D00000380OF00000635  10003Public key kaydi bulunamadi.                      
D00000381OF00000208  10003Public key kaydi bulunamadi.                      
D00000382OF00000238  10003Public key kaydi bulunamadi.                      
D00000383OF00000116  10003Public key kaydi bulunamadi.                      
D00000384OF00000171  10003Public key kaydi bulunamadi.                      
D00000385OF00000294  10003Public key kaydi bulunamadi.                      
D00000386OF00000116  10003Public key kaydi bulunamadi.                      
D00000387OF00000171  10003Public key kaydi bulunamadi.                      
D00000388OF00000208  10003Public key kaydi bulunamadi.                      
D00000389OF00000238  10003Public key kaydi bulunamadi.                      
D00000390OF00000294  10003Public key kaydi bulunamadi.                      
D00000391OF00000788  10003Public key kaydi bulunamadi.                      
D00000392OF00000364  10003Public key kaydi bulunamadi.                      
D00000393OF00000691  10003Public key kaydi bulunamadi.                      
D00000394OF00000923  10003Public key kaydi bulunamadi.                      
D00000395OF00001088  10003Public key kaydi bulunamadi.                      
D00000396OF00001089  10003Public key kaydi bulunamadi.                      
D00000397OF00000862  10003Public key kaydi bulunamadi.                      
D00000398OF00000592  10003Public key kaydi bulunamadi.                      
D00000399OF00000524  10003Public key kaydi bulunamadi.                      
D00000400OF00000522  10003Public key kaydi bulunamadi.                      
D00000401OF00000540  10003Public key kaydi bulunamadi.                      
D00000402OF00000553  10003Public key kaydi bulunamadi.                      
D00000403OF00001081  10015VEDOP da mukellefe ait kayit yok yada OKC alamaz  
D00000404OF00000113  10003Public key kaydi bulunamadi.                      
D00000405OF00000073  10003Public key kaydi bulunamadi.                      
D00000406OF00000080  10003Public key kaydi bulunamadi.                      
D00000407OF00000931  10022Bu okc başka bir mükellef adına kayıtlı           
D00000408OF00000933  10015VEDOP da mukellefe ait kayit yok yada OKC alamaz  
F408
