﻿H00012016053001O
D00000001OF00000368  10015VEDOP da mukellefe ait kayit yok yada OKC alamaz  
D00000002OF00000314  10015VEDOP da mukellefe ait kayit yok yada OKC alamaz  
D00000003OF00000323  10015VEDOP da mukellefe ait kayit yok yada OKC alamaz  
D00000004OF00000324  10015VEDOP da mukellefe ait kayit yok yada OKC alamaz  
D00000005OF00000327  10015VEDOP da mukellefe ait kayit yok yada OKC alamaz  
D00000006OF00000329  10015VEDOP da mukellefe ait kayit yok yada OKC alamaz  
D00000007OF00000332  10015VEDOP da mukellefe ait kayit yok yada OKC alamaz  
D00000008OF00000335  10015VEDOP da mukellefe ait kayit yok yada OKC alamaz  
D00000009OF00000338  10015VEDOP da mukellefe ait kayit yok yada OKC alamaz  
D00000010OF00000339  10015VEDOP da mukellefe ait kayit yok yada OKC alamaz  
D00000011OF00000340  10015VEDOP da mukellefe ait kayit yok yada OKC alamaz  
D00000012OF00000343  10015VEDOP da mukellefe ait kayit yok yada OKC alamaz  
D00000013OF00000345  10015VEDOP da mukellefe ait kayit yok yada OKC alamaz  
D00000014OF00000354  10015VEDOP da mukellefe ait kayit yok yada OKC alamaz  
D00000015OF00000355  10015VEDOP da mukellefe ait kayit yok yada OKC alamaz  
D00000016OF00000361  10015VEDOP da mukellefe ait kayit yok yada OKC alamaz  
D00000017OF00000393  10015VEDOP da mukellefe ait kayit yok yada OKC alamaz  
D00000018OF00000402  10015VEDOP da mukellefe ait kayit yok yada OKC alamaz  
D00000019OF00000403  10015VEDOP da mukellefe ait kayit yok yada OKC alamaz  
D00000020OF00000413  10015VEDOP da mukellefe ait kayit yok yada OKC alamaz  
D00000021OF00000414  10015VEDOP da mukellefe ait kayit yok yada OKC alamaz  
D00000022OF00000421  10015VEDOP da mukellefe ait kayit yok yada OKC alamaz  
D00000023OF00000422  10015VEDOP da mukellefe ait kayit yok yada OKC alamaz  
D00000024OF00000423  10015VEDOP da mukellefe ait kayit yok yada OKC alamaz  
D00000025OF00000459  10015VEDOP da mukellefe ait kayit yok yada OKC alamaz  
D00000026OF00000467  10015VEDOP da mukellefe ait kayit yok yada OKC alamaz  
D00000027OF00000468  10015VEDOP da mukellefe ait kayit yok yada OKC alamaz  
D00000028OF00000473  10015VEDOP da mukellefe ait kayit yok yada OKC alamaz  
D00000029OF00000477  10015VEDOP da mukellefe ait kayit yok yada OKC alamaz  
F29
