﻿H00012017052001O
D00000001#BT4564564564003#10067#Hatalı Alan Uzunluğu :YNOKC Seri No
F1
V001#000000000001#Mühürlü cihaz[Sertifika bilgisi olmayan]#
V002#000000000143#Mühürlü cihaz[Sertifika bilgisi olan]#
V003#000000001412#Aktivasyonu yapılmış cihaz#
V004#000000000052#Kapalı cihaz#
V005#000000000017#Hurdaya ayrılmış cihaz#
V006#000000000000#Kayıp çalıntı cihaz#
