﻿H00032017081502O
F0
V001#000000000037#Mühürlü cihaz[Sertifika bilgisi olmayan]#
V002#000000000143#Mühürlü cihaz[Sertifika bilgisi olan]#
V003#000000001412#Aktivasyonu yapılmış cihaz#
V004#000000000052#Kapalı cihaz#
V005#000000000017#Hurdaya ayrılmış cihaz#
V006#000000000000#Kayıp çalıntı cihaz#
