﻿H00022017030601O
D00000001#OF00001069#10009#Alanın degeri bos yada yanlış :Fatura Seri No
F1
V001#000000000000#Mühürlü cihaz[Sertifika bilgisi olmayan]#
V002#000000000032#Mühürlü cihaz[Sertifika bilgisi olan]#
V003#000000001361#Aktivasyonu yapılmış cihaz#
V004#000000000051#Kapalı cihaz#
V005#000000000016#Hurdaya ayrılmış cihaz#
V006#000000000000#Kayıp çalıntı cihaz#
