﻿H00052016112901O
D00000001#OF#10067#Hatalı Alan Uzunluğu :Yetkili İl Kodu
D00000002#OF#10067#Hatalı Alan Uzunluğu :Yetkili İl Kodu
D00000003#OF#10067#Hatalı Alan Uzunluğu :Yetkili İl Kodu
D00000004#OF#10067#Hatalı Alan Uzunluğu :Yetkili İl Kodu
D00000005#OF#10067#Hatalı Alan Uzunluğu :Yetkili İl Kodu
D00000006#OF#10067#Hatalı Alan Uzunluğu :Yetkili İl Kodu
D00000007#OF#10067#Hatalı Alan Uzunluğu :Yetkili İl Kodu
D00000008#OF#10067#Hatalı Alan Uzunluğu :Yetkili İl Kodu
D00000009#OF#10067#Hatalı Alan Uzunluğu :Yetkili İl Kodu
D00000010#OF#10067#Hatalı Alan Uzunluğu :Yetkili İl Kodu
D00000011#OF#10067#Hatalı Alan Uzunluğu :Yetkili İl Kodu
D00000012#OF#10067#Hatalı Alan Uzunluğu :Yetkili İl Kodu
D00000013#OF#10067#Hatalı Alan Uzunluğu :Yetkili İl Kodu
D00000014#OF#10067#Hatalı Alan Uzunluğu :Yetkili İl Kodu
D00000015#OF#10067#Hatalı Alan Uzunluğu :Yetkili İl Kodu
D00000016#OF#10067#Hatalı Alan Uzunluğu :Yetkili İl Kodu
D00000017#OF#10067#Hatalı Alan Uzunluğu :Yetkili İl Kodu
D00000018#OF#10067#Hatalı Alan Uzunluğu :Yetkili İl Kodu
D00000019#OF#10067#Hatalı Alan Uzunluğu :Yetkili İl Kodu
D00000020#OF#10067#Hatalı Alan Uzunluğu :Yetkili İl Kodu
D00000021#OF#10067#Hatalı Alan Uzunluğu :Yetkili İl Kodu
D00000022#OF#10067#Hatalı Alan Uzunluğu :Yetkili İl Kodu
D00000023#OF#10067#Hatalı Alan Uzunluğu :Yetkili İl Kodu
D00000024#OF#10067#Hatalı Alan Uzunluğu :Yetkili İl Kodu
D00000025#OF#10067#Hatalı Alan Uzunluğu :Yetkili İl Kodu
D00000026#OF#10067#Hatalı Alan Uzunluğu :Yetkili İl Kodu
D00000027#OF#10067#Hatalı Alan Uzunluğu :Yetkili İl Kodu
D00000028#OF#10067#Hatalı Alan Uzunluğu :Yetkili İl Kodu
D00000029#OF#10067#Hatalı Alan Uzunluğu :Yetkili İl Kodu
D00000030#OF#10067#Hatalı Alan Uzunluğu :Yetkili İl Kodu
D00000031#OF#10067#Hatalı Alan Uzunluğu :Yetkili İl Kodu
D00000032#OF#10067#Hatalı Alan Uzunluğu :Yetkili İl Kodu
D00000033#OF#10067#Hatalı Alan Uzunluğu :Yetkili İl Kodu
D00000034#OF#10067#Hatalı Alan Uzunluğu :Yetkili İl Kodu
D00000035#OF#10067#Hatalı Alan Uzunluğu :Yetkili İl Kodu
D00000036#OF#10067#Hatalı Alan Uzunluğu :Yetkili İl Kodu
D00000037#OF#10067#Hatalı Alan Uzunluğu :Yetkili İl Kodu
D00000038#OF#10067#Hatalı Alan Uzunluğu :Yetkili İl Kodu
D00000039#OF#10067#Hatalı Alan Uzunluğu :Yetkili İl Kodu
D00000040#OF#10067#Hatalı Alan Uzunluğu :Yetkili İl Kodu
D00000041#OF#10067#Hatalı Alan Uzunluğu :Yetkili İl Kodu
D00000042#OF#10067#Hatalı Alan Uzunluğu :Yetkili İl Kodu
D00000043#OF#10067#Hatalı Alan Uzunluğu :Yetkili İl Kodu
D00000044#OF#10067#Hatalı Alan Uzunluğu :Yetkili İl Kodu
D00000045#OF#10067#Hatalı Alan Uzunluğu :Yetkili İl Kodu
D00000046#OF#10067#Hatalı Alan Uzunluğu :Yetkili İl Kodu
D00000047#OF#10067#Hatalı Alan Uzunluğu :Yetkili İl Kodu
D00000048#OF#10067#Hatalı Alan Uzunluğu :Yetkili İl Kodu
D00000049#OF#10067#Hatalı Alan Uzunluğu :Yetkili İl Kodu
D00000050#OF#10067#Hatalı Alan Uzunluğu :Yetkili İl Kodu
D00000051#OF#10067#Hatalı Alan Uzunluğu :Yetkili İl Kodu
D00000052#OF#10067#Hatalı Alan Uzunluğu :Yetkili İl Kodu
D00000053#OF#10067#Hatalı Alan Uzunluğu :Yetkili İl Kodu
D00000054#OF#10067#Hatalı Alan Uzunluğu :Yetkili İl Kodu
D00000055#OF#10067#Hatalı Alan Uzunluğu :Yetkili İl Kodu
D00000056#OF#10067#Hatalı Alan Uzunluğu :Yetkili İl Kodu
D00000057#OF#10067#Hatalı Alan Uzunluğu :Yetkili İl Kodu
D00000058#OF#10067#Hatalı Alan Uzunluğu :Yetkili İl Kodu
D00000059#OF#10067#Hatalı Alan Uzunluğu :Yetkili İl Kodu
D00000060#OF#10067#Hatalı Alan Uzunluğu :Yetkili İl Kodu
D00000061#OF#10067#Hatalı Alan Uzunluğu :Yetkili İl Kodu
D00000062#OF#10067#Hatalı Alan Uzunluğu :Yetkili İl Kodu
D00000063#OF#10067#Hatalı Alan Uzunluğu :Yetkili İl Kodu
D00000064#OF#10067#Hatalı Alan Uzunluğu :Yetkili İl Kodu
D00000065#OF#10067#Hatalı Alan Uzunluğu :Yetkili İl Kodu
D00000066#OF#10067#Hatalı Alan Uzunluğu :Yetkili İl Kodu
F66
