id,name,model_id:id,group_id:id,perm_read,perm_write,perm_create,perm_unlink
access_global_search_config_manager,access_global_search_config manager,model_global_search_config,sync_global_search.group_global_search_manager,1,1,1,1
access_global_search_config_user,global_search_config user,model_global_search_config,sync_global_search.group_global_search_user,1,0,0,0
access_global_search_config_portal,access_global_search_config portal,model_global_search_config,base.group_portal,1,0,0,0
access_global_search_config_template_manager,access_global_search_config_template_manager,model_global_search_config_template,sync_global_search.group_global_search_manager,1,1,1,1
access_global_search_config_template_user,access_global_search_config_template user,model_global_search_config_template,sync_global_search.group_global_search_user,1,0,0,0
access_global_search_config_batch_manager,access_global_search_config_batch_manager,model_global_search_config_batch,sync_global_search.group_global_search_manager,1,1,1,1
access_global_search_config_batch_user,access_global_search_config_batch_user,model_global_search_config_batch,sync_global_search.group_global_search_user,1,0,0,0
