﻿H00022016122001O
D00000004#OF00001087#10028#İzin Verilen Durumların Haricinde Devir İşlemi
F1
V001#000000000003#Mühürlü cihaz[Sertifika bilgisi olmayan]#
V002#000000000039#Mühürlü cihaz[Sertifika bilgisi olan]#
V003#000000001208#Aktivasyonu yapılmış cihaz#
V004#000000000004#Kapalı cihaz#
V005#000000000000#Hurdaya ayrılmış cihaz#
V006#000000000000#Kayıp çalıntı cihaz#
