﻿H00022017042201O
F0
V001#000000000001#Mühürlü cihaz[Sertifika bilgisi olmayan]#
V002#000000000148#Mühürlü cihaz[Sertifika bilgisi olan]#
V003#000000001407#Aktivasyonu yapılmış cihaz#
V004#000000000052#Kapalı cihaz#
V005#000000000017#Hurdaya ayrılmış cihaz#
V006#000000000000#Kayıp çalıntı cihaz#
