H00012016011701I
DİNFOTEKS                      12FUSIONS        410G           OF  OF0000000147                                                                                                                                                                                                                                                                                                                                                                                                                                                                                                                                213123123                     2016010720160107        1                                                                 
DİNFOTEKS                      12FUSIONS        410G           OF  OF0000000075                                                                                                                                                                                                                                                                                                                                                                                                                                                                                                                                12313                         2016010720160108        1                                                                 
DİNFOTEKS                      12FUSIONS        410G           OF  OF0000000066                                                                                                                                                                                                                                                                                                                                                                                                                                                                                                                                21313                         2016011520160115        1                                                                 
DİNFOTEKS                      12FUSIONS        410G           OF  OF0000000008                                                                                                                                                                                                                                                                                                                                                                                                                                                                                                                                23213                         2016010720160107        1                                                                 
DİNFOTEKS                      12FUSIONS        410G           OF  OF0000000058                                                                                                                                                                                                                                                                                                                                                                                                                                                                                                                                123132                        2016010820160109        1                                                                 
DİNFOTEKS                      12FUSIONS        410G           OF  TEST00007000                                                                                                                                                                                                                                                                                                                                                                                                                                                                                                                                123123123                     2016011220160113201601131                                                                 
DİNFOTEKS                      12FUSIONS        410G           OF  OF0000000114                                                                                                                                                                                                                                                                                                                                                                                                                                                                                                                                123123                        2016011220160112201601131                                                                 
DİNFOTEKS                      12FUSIONS        410G           OF  OF0000000079                                                                                                                                                                                                                                                                                                                                                                                                                                                                                                                                3423424                       2016011220160113201601121                                                                 
DİNFOTEKS                      12FUSIONS        410G           OF  OF00000000011212121212122222222222222212                                                                                                                                                                                                                                                                                                                                                                                                                                                                                                    80980890                      2016011520160116201601151 3423424234                                                      
F9