﻿H00032017082401O
F0
V001#000000000038#Mühürlü cihaz[Sertifika bilgisi olmayan]#
V002#000000000102#Mühürlü cihaz[Sertifika bilgisi olan]#
V003#000000001449#Aktivasyonu yapılmış cihaz#
V004#000000000053#Kapalı cihaz#
V005#000000000020#Hurdaya ayrılmış cihaz#
V006#000000000000#Kayıp çalıntı cihaz#
